<?xml version="1.0" encoding="UTF-8" standalone="no"?>
<svg
   xmlns:dc="http://purl.org/dc/elements/1.1/"
   xmlns:cc="http://creativecommons.org/ns#"
   xmlns:rdf="http://www.w3.org/1999/02/22-rdf-syntax-ns#"
   xmlns:svg="http://www.w3.org/2000/svg"
   xmlns="http://www.w3.org/2000/svg"
   xmlns:sodipodi="http://sodipodi.sourceforge.net/DTD/sodipodi-0.dtd"
   xmlns:inkscape="http://www.inkscape.org/namespaces/inkscape"
   aria-hidden="true"
   focusable="false"
   data-prefix="fad"
   data-icon="fist-raised"
   role="img"
   viewBox="0 0 638.74225 638.74225"
   class="svg-inline--fa fa-fist-raised fa-w-12 fa-9x"
   version="1.1"
   id="svg8"
   sodipodi:docname="fist-transparent.svg"
   inkscape:version="1.0.2 (e86c870879, 2021-01-15)"
   width="638.74225"
   height="638.74225"
   inkscape:export-filename="/home/void/logo.png"
   inkscape:export-xdpi="76.951225"
   inkscape:export-ydpi="76.951225">
  <metadata
     id="metadata14">
    <rdf:RDF>
      <cc:Work
         rdf:about="">
        <dc:format>image/svg+xml</dc:format>
        <dc:type
           rdf:resource="http://purl.org/dc/dcmitype/StillImage" />
        <dc:title />
      </cc:Work>
    </rdf:RDF>
  </metadata>
  <defs
     id="defs12" />
  <sodipodi:namedview
     pagecolor="#ffffff"
     bordercolor="#666666"
     borderopacity="1"
     objecttolerance="10"
     gridtolerance="10"
     guidetolerance="10"
     inkscape:pageopacity="0"
     inkscape:pageshadow="2"
     inkscape:window-width="1920"
     inkscape:window-height="1012"
     id="namedview10"
     showgrid="false"
     inkscape:zoom="0.98214868"
     inkscape:cx="363.4376"
     inkscape:cy="317.19093"
     inkscape:window-x="0"
     inkscape:window-y="0"
     inkscape:window-maximized="1"
     inkscape:current-layer="g6"
     inkscape:document-rotation="0"
     lock-margins="true"
     fit-margin-top="0"
     fit-margin-left="0"
     fit-margin-right="0"
     fit-margin-bottom="0"
     inkscape:pagecheckerboard="true" />
  <g
     class="fa-group"
     id="g6"
     transform="translate(159.70844,63.371124)">
    <path
       id="path1250-2"
       style="fill:#7cc9eb;fill-opacity:0.30000001"
       d="m 230.84625,21.60348 a 66.211258,66.211258 0 0 0 -51.1836,24.21095 v 117.11523 a 47.56,47.56 0 0 1 0.10157,-0.0371 47.56,47.56 0 0 1 0.54687,-0.19531 47.56,47.56 0 0 1 0.54688,-0.18945 47.56,47.56 0 0 1 0.55078,-0.1836 47.56,47.56 0 0 1 0.55273,-0.17578 47.56,47.56 0 0 1 0.55469,-0.16797 47.56,47.56 0 0 1 0.55664,-0.16211 47.56,47.56 0 0 1 0.55859,-0.15625 47.56,47.56 0 0 1 0.56055,-0.14843 47.56,47.56 0 0 1 0.5625,-0.14258 47.56,47.56 0 0 1 0.56445,-0.13477 47.56,47.56 0 0 1 0.56641,-0.12695 47.56,47.56 0 0 1 0.56641,-0.12109 47.56,47.56 0 0 1 0.56836,-0.11524 47.56,47.56 0 0 1 0.57031,-0.10742 47.56,47.56 0 0 1 0.57031,-0.0996 47.56,47.56 0 0 1 0.57227,-0.0937 47.56,47.56 0 0 1 0.57421,-0.0859 47.56,47.56 0 0 1 0.57422,-0.0801 47.56,47.56 0 0 1 0.57618,-0.0723 47.56,47.56 0 0 1 0.57617,-0.0645 47.56,47.56 0 0 1 0.57617,-0.0586 47.56,47.56 0 0 1 0.57812,-0.0508 47.56,47.56 0 0 1 0.57813,-0.0449 47.56,47.56 0 0 1 0.57812,-0.0371 47.56,47.56 0 0 1 0.58008,-0.0293 47.56,47.56 0 0 1 0.57813,-0.0234 47.56,47.56 0 0 1 0.58008,-0.0156 47.56,47.56 0 0 1 0.58007,-0.01 h 48 V 22.85544 a 66.211258,66.211258 0 0 0 -12.8164,-1.25196 z m 46.55859,19.13673 a 16,16 0 0 0 -0.0605,0.12109 16,16 0 0 0 -0.14648,0.30274 16,16 0 0 0 -0.14063,0.30468 16,16 0 0 0 -0.13476,0.3086 16,16 0 0 0 -0.12695,0.3125 16,16 0 0 0 -0.1211,0.3125 16,16 0 0 0 -0.11523,0.3164 16,16 0 0 0 -0.10742,0.31836 16,16 0 0 0 -0.10157,0.32227 16,16 0 0 0 -0.0937,0.32226 16,16 0 0 0 -0.0879,0.32422 16,16 0 0 0 -0.0801,0.32617 16,16 0 0 0 -0.0742,0.33008 16,16 0 0 0 -0.0664,0.32813 16,16 0 0 0 -0.0586,0.33203 16,16 0 0 0 -0.0527,0.33203 16,16 0 0 0 -0.0469,0.33203 16,16 0 0 0 -0.0391,0.33594 16,16 0 0 0 -0.0312,0.33398 16,16 0 0 0 -0.0254,0.33594 16,16 0 0 0 -0.0176,0.33594 16,16 0 0 0 -0.01,0.33594 16,16 0 0 0 -0.004,0.33593 v 112 h 32 a 94.76,94.76 0 0 1 0.77735,0.0117 94.76,94.76 0 0 1 0.81836,0.0176 94.76,94.76 0 0 1 0.81836,0.0254 94.76,94.76 0 0 1 0.81836,0.0312 94.76,94.76 0 0 1 0.8164,0.041 94.76,94.76 0 0 1 0.81836,0.0449 94.76,94.76 0 0 1 0.81641,0.0547 94.76,94.76 0 0 1 0.8164,0.0605 94.76,94.76 0 0 1 0.81446,0.0684 94.76,94.76 0 0 1 0.8164,0.0742 94.76,94.76 0 0 1 0.81446,0.082 94.76,94.76 0 0 1 0.8125,0.0879 94.76,94.76 0 0 1 0.81445,0.0957 94.76,94.76 0 0 1 0.81055,0.10351 94.76,94.76 0 0 1 0.8125,0.10938 94.76,94.76 0 0 1 0.81054,0.11718 94.76,94.76 0 0 1 0.8086,0.12305 94.76,94.76 0 0 1 0.80859,0.13086 94.76,94.76 0 0 1 0.80664,0.13867 94.76,94.76 0 0 1 0.80469,0.14453 94.76,94.76 0 0 1 0.80469,0.15235 94.76,94.76 0 0 1 0.80273,0.1582 94.76,94.76 0 0 1 0.80273,0.16602 94.76,94.76 0 0 1 0.79883,0.17187 94.76,94.76 0 0 1 0.79883,0.17969 94.76,94.76 0 0 1 0.79688,0.18555 94.76,94.76 0 0 1 0.79687,0.19335 94.76,94.76 0 0 1 0.79297,0.20118 94.76,94.76 0 0 1 0.79297,0.20703 94.76,94.76 0 0 1 0.78906,0.21289 94.76,94.76 0 0 1 0.78906,0.2207 94.76,94.76 0 0 1 0.78516,0.22656 94.76,94.76 0 0 1 0.78516,0.23438 94.76,94.76 0 0 1 0.78125,0.24219 94.76,94.76 0 0 1 0.78125,0.24609 94.76,94.76 0 0 1 0.77734,0.25586 94.76,94.76 0 0 1 0.77539,0.25977 94.76,94.76 0 0 1 0.77539,0.26953 94.76,94.76 0 0 1 0.76953,0.27343 94.76,94.76 0 0 1 0.76953,0.28125 V 68.97068 a 86.326195,86.326195 0 0 0 -21.61328,-2.75 86.326195,86.326195 0 0 0 -23.57617,3.28125 66.211258,66.211258 0 0 0 -17.06836,-28.76172 z M 131.99468,63.99997 A 83.994247,83.994247 0 0 0 83.66265,79.2988 v 128.70117 a 16,16 0 0 0 0.002,0.24219 16,16 0 0 0 0.008,0.33594 16,16 0 0 0 0.0156,0.33594 16,16 0 0 0 0.0234,0.33593 16,16 0 0 0 0.0293,0.33594 16,16 0 0 0 0.0371,0.33399 16,16 0 0 0 0.0449,0.33203 16,16 0 0 0 0.0508,0.33398 16,16 0 0 0 0.0566,0.33008 16,16 0 0 0 0.0645,0.33008 16,16 0 0 0 0.0723,0.33008 16,16 0 0 0 0.0781,0.32617 16,16 0 0 0 0.0859,0.32617 16,16 0 0 0 0.0918,0.32227 16,16 0 0 0 0.0996,0.32226 16,16 0 0 0 0.10547,0.31836 16,16 0 0 0 0.11328,0.31836 16,16 0 0 0 0.11914,0.31445 16,16 0 0 0 0.125,0.31055 16,16 0 0 0 0.13281,0.31055 16,16 0 0 0 0.13867,0.30664 16,16 0 0 0 0.14454,0.30273 16,16 0 0 0 0.15234,0.30078 16,16 0 0 0 0.1582,0.29688 16,16 0 0 0 0.16407,0.29297 16,16 0 0 0 0.16992,0.29101 16,16 0 0 0 0.17578,0.28516 16,16 0 0 0 0.18164,0.2832 16,16 0 0 0 0.1875,0.2793 16,16 0 0 0 0.19531,0.27539 16,16 0 0 0 0.19922,0.26953 16,16 0 0 0 0.20508,0.26758 16,16 0 0 0 0.21094,0.26172 16,16 0 0 0 0.21679,0.25781 16,16 0 0 0 0.22071,0.25195 16,16 0 0 0 0.22656,0.25 16,16 0 0 0 0.23242,0.24219 16,16 0 0 0 0.23633,0.23828 16,16 0 0 0 0.24219,0.23438 16,16 0 0 0 0.24804,0.22851 16,16 0 0 0 0.25196,0.22266 16,16 0 0 0 0.25585,0.21875 16,16 0 0 0 0.25977,0.21094 16,16 0 0 0 0.26563,0.20703 16,16 0 0 0 0.26953,0.20117 16,16 0 0 0 0.27343,0.19531 16,16 0 0 0 0.2793,0.18945 16,16 0 0 0 0.28125,0.1836 16,16 0 0 0 0.28516,0.17773 16,16 0 0 0 0.28906,0.17188 16,16 0 0 0 0.29297,0.16601 16,16 0 0 0 0.29687,0.16016 16,16 0 0 0 0.29883,0.15234 16,16 0 0 0 0.30274,0.14844 16,16 0 0 0 0.30468,0.14063 16,16 0 0 0 0.3086,0.13281 16,16 0 0 0 0.3125,0.12695 16,16 0 0 0 0.3125,0.1211 16,16 0 0 0 0.3164,0.11523 16,16 0 0 0 0.31836,0.10742 16,16 0 0 0 0.32227,0.10156 16,16 0 0 0 0.32226,0.0937 16,16 0 0 0 0.32422,0.0879 16,16 0 0 0 0.32617,0.0801 16,16 0 0 0 0.32813,0.0742 16,16 0 0 0 0.33008,0.0664 16,16 0 0 0 0.33203,0.0586 16,16 0 0 0 0.33203,0.0527 16,16 0 0 0 0.33203,0.0469 16,16 0 0 0 0.33594,0.0391 16,16 0 0 0 0.33398,0.0312 16,16 0 0 0 0.33594,0.0254 16,16 0 0 0 0.33594,0.0176 16,16 0 0 0 0.33594,0.01 16,16 0 0 0 0.33593,0.004 h 32 a 16,16 0 0 0 0.24219,-0.002 16,16 0 0 0 0.33594,-0.008 16,16 0 0 0 0.33594,-0.0156 16,16 0 0 0 0.33593,-0.0234 16,16 0 0 0 0.33594,-0.0293 16,16 0 0 0 0.33399,-0.0371 16,16 0 0 0 0.33203,-0.0449 16,16 0 0 0 0.33398,-0.0508 16,16 0 0 0 0.33008,-0.0566 16,16 0 0 0 0.33008,-0.0645 16,16 0 0 0 0.33008,-0.0723 16,16 0 0 0 0.32617,-0.0781 16,16 0 0 0 0.32617,-0.0859 16,16 0 0 0 0.32227,-0.0918 16,16 0 0 0 0.32226,-0.0996 16,16 0 0 0 0.31836,-0.10547 16,16 0 0 0 0.31836,-0.11328 16,16 0 0 0 0.31445,-0.11914 16,16 0 0 0 0.31055,-0.125 16,16 0 0 0 0.31055,-0.13282 16,16 0 0 0 0.30664,-0.13867 16,16 0 0 0 0.30273,-0.14453 16,16 0 0 0 0.30078,-0.15234 16,16 0 0 0 0.29688,-0.1582 16,16 0 0 0 0.29297,-0.16407 16,16 0 0 0 0.29101,-0.16992 16,16 0 0 0 0.28516,-0.17578 16,16 0 0 0 0.2832,-0.18164 16,16 0 0 0 0.2793,-0.1875 16,16 0 0 0 0.27539,-0.19531 16,16 0 0 0 0.26953,-0.19922 16,16 0 0 0 0.26758,-0.20508 16,16 0 0 0 0.26172,-0.21094 16,16 0 0 0 0.25781,-0.2168 16,16 0 0 0 0.25195,-0.2207 16,16 0 0 0 0.25,-0.22656 16,16 0 0 0 0.24219,-0.23242 16,16 0 0 0 0.23828,-0.23633 16,16 0 0 0 0.23438,-0.24219 16,16 0 0 0 0.22851,-0.24804 16,16 0 0 0 0.22266,-0.25196 16,16 0 0 0 0.21875,-0.25586 16,16 0 0 0 0.21094,-0.25976 16,16 0 0 0 0.20703,-0.26563 16,16 0 0 0 0.20117,-0.26953 16,16 0 0 0 0.19531,-0.27344 16,16 0 0 0 0.18945,-0.27929 16,16 0 0 0 0.1836,-0.28125 16,16 0 0 0 0.17773,-0.28516 16,16 0 0 0 0.17188,-0.28906 16,16 0 0 0 0.16601,-0.29297 16,16 0 0 0 0.16016,-0.29688 16,16 0 0 0 0.15234,-0.29882 16,16 0 0 0 0.14844,-0.30274 16,16 0 0 0 0.14063,-0.30469 16,16 0 0 0 0.13281,-0.30859 16,16 0 0 0 0.12695,-0.3125 16,16 0 0 0 0.1211,-0.3125 16,16 0 0 0 0.11523,-0.31641 16,16 0 0 0 0.10742,-0.31836 16,16 0 0 0 0.10156,-0.32226 16,16 0 0 0 0.0937,-0.32227 16,16 0 0 0 0.0879,-0.32422 16,16 0 0 0 0.0801,-0.32617 16,16 0 0 0 0.0742,-0.33008 16,16 0 0 0 0.0664,-0.32812 16,16 0 0 0 0.0586,-0.33203 16,16 0 0 0 0.0527,-0.33203 16,16 0 0 0 0.0469,-0.33203 16,16 0 0 0 0.0391,-0.33594 16,16 0 0 0 0.0312,-0.33399 16,16 0 0 0 0.0254,-0.33593 16,16 0 0 0 0.0176,-0.33594 16,16 0 0 0 0.01,-0.33594 16,16 0 0 0 0.004,-0.33594 V 65.47458 A 83.994247,83.994247 0 0 0 131.99511,63.99997 Z M -1.89985,107.66404 a 83.15036,83.15036 0 0 0 -10.4375,0.6582 v 99.67773 a 16,16 0 0 0 0.002,0.24219 16,16 0 0 0 0.008,0.33594 16,16 0 0 0 0.0156,0.33594 16,16 0 0 0 0.0234,0.33593 16,16 0 0 0 0.0293,0.33594 16,16 0 0 0 0.0371,0.33399 16,16 0 0 0 0.0449,0.33203 16,16 0 0 0 0.0508,0.33398 16,16 0 0 0 0.0566,0.33008 16,16 0 0 0 0.0645,0.33008 16,16 0 0 0 0.0723,0.33008 16,16 0 0 0 0.0781,0.32617 16,16 0 0 0 0.0859,0.32617 16,16 0 0 0 0.0918,0.32227 16,16 0 0 0 0.0996,0.32226 16,16 0 0 0 0.10547,0.31836 16,16 0 0 0 0.11328,0.31836 16,16 0 0 0 0.11914,0.31445 16,16 0 0 0 0.125,0.31055 16,16 0 0 0 0.13281,0.31055 16,16 0 0 0 0.13867,0.30664 16,16 0 0 0 0.14454,0.30273 16,16 0 0 0 0.15234,0.30078 16,16 0 0 0 0.1582,0.29688 16,16 0 0 0 0.16407,0.29297 16,16 0 0 0 0.16992,0.29101 16,16 0 0 0 0.17578,0.28516 16,16 0 0 0 0.18164,0.2832 16,16 0 0 0 0.1875,0.2793 16,16 0 0 0 0.19531,0.27539 16,16 0 0 0 0.19922,0.26953 16,16 0 0 0 0.20508,0.26758 16,16 0 0 0 0.21094,0.26172 16,16 0 0 0 0.21679,0.25781 16,16 0 0 0 0.22071,0.25195 16,16 0 0 0 0.22656,0.25 16,16 0 0 0 0.23242,0.24219 16,16 0 0 0 0.23633,0.23828 16,16 0 0 0 0.24219,0.23438 16,16 0 0 0 0.24804,0.22851 16,16 0 0 0 0.25196,0.22266 16,16 0 0 0 0.25585,0.21875 16,16 0 0 0 0.25977,0.21094 16,16 0 0 0 0.26563,0.20703 16,16 0 0 0 0.26953,0.20117 16,16 0 0 0 0.27343,0.19531 16,16 0 0 0 0.2793,0.18945 16,16 0 0 0 0.28125,0.1836 16,16 0 0 0 0.28516,0.17773 16,16 0 0 0 0.28906,0.17188 16,16 0 0 0 0.29297,0.16601 16,16 0 0 0 0.29687,0.16016 16,16 0 0 0 0.29883,0.15234 16,16 0 0 0 0.30274,0.14844 16,16 0 0 0 0.30468,0.14063 16,16 0 0 0 0.3086,0.13281 16,16 0 0 0 0.3125,0.12695 16,16 0 0 0 0.3125,0.1211 16,16 0 0 0 0.3164,0.11523 16,16 0 0 0 0.31836,0.10742 16,16 0 0 0 0.32227,0.10156 16,16 0 0 0 0.32226,0.0937 16,16 0 0 0 0.32422,0.0879 16,16 0 0 0 0.32617,0.0801 16,16 0 0 0 0.32813,0.0742 16,16 0 0 0 0.33008,0.0664 16,16 0 0 0 0.33203,0.0586 16,16 0 0 0 0.33203,0.0527 16,16 0 0 0 0.33203,0.0469 16,16 0 0 0 0.33594,0.0391 16,16 0 0 0 0.33398,0.0312 16,16 0 0 0 0.33594,0.0254 16,16 0 0 0 0.33594,0.0176 16,16 0 0 0 0.33594,0.01 16,16 0 0 0 0.33593,0.004 h 32 a 16,16 0 0 0 0.24219,-0.002 16,16 0 0 0 0.33594,-0.008 16,16 0 0 0 0.33594,-0.0156 16,16 0 0 0 0.33593,-0.0234 16,16 0 0 0 0.33594,-0.0293 16,16 0 0 0 0.33399,-0.0371 16,16 0 0 0 0.33203,-0.0449 16,16 0 0 0 0.33398,-0.0508 16,16 0 0 0 0.33008,-0.0566 16,16 0 0 0 0.33008,-0.0645 16,16 0 0 0 0.33008,-0.0723 16,16 0 0 0 0.32617,-0.0781 16,16 0 0 0 0.32617,-0.0859 16,16 0 0 0 0.32227,-0.0918 16,16 0 0 0 0.32226,-0.0996 16,16 0 0 0 0.31836,-0.10547 16,16 0 0 0 0.31836,-0.11328 16,16 0 0 0 0.31445,-0.11914 16,16 0 0 0 0.31055,-0.125 16,16 0 0 0 0.31055,-0.13282 16,16 0 0 0 0.30664,-0.13867 16,16 0 0 0 0.30273,-0.14453 16,16 0 0 0 0.30078,-0.15234 16,16 0 0 0 0.29688,-0.1582 16,16 0 0 0 0.29297,-0.16407 16,16 0 0 0 0.29101,-0.16992 16,16 0 0 0 0.28516,-0.17578 16,16 0 0 0 0.2832,-0.18164 16,16 0 0 0 0.2793,-0.1875 16,16 0 0 0 0.27539,-0.19531 16,16 0 0 0 0.26953,-0.19922 16,16 0 0 0 0.26758,-0.20508 16,16 0 0 0 0.26172,-0.21094 16,16 0 0 0 0.25781,-0.2168 16,16 0 0 0 0.25195,-0.2207 16,16 0 0 0 0.25,-0.22656 16,16 0 0 0 0.24219,-0.23242 16,16 0 0 0 0.23828,-0.23633 16,16 0 0 0 0.23438,-0.24219 16,16 0 0 0 0.22851,-0.24804 16,16 0 0 0 0.22266,-0.25196 16,16 0 0 0 0.21875,-0.25586 16,16 0 0 0 0.21094,-0.25976 16,16 0 0 0 0.20703,-0.26563 16,16 0 0 0 0.20117,-0.26953 16,16 0 0 0 0.19531,-0.27344 16,16 0 0 0 0.18945,-0.27929 16,16 0 0 0 0.1836,-0.28125 16,16 0 0 0 0.17773,-0.28516 16,16 0 0 0 0.17188,-0.28906 16,16 0 0 0 0.16601,-0.29297 16,16 0 0 0 0.16016,-0.29688 16,16 0 0 0 0.15234,-0.29882 16,16 0 0 0 0.14844,-0.30274 16,16 0 0 0 0.14063,-0.30469 16,16 0 0 0 0.13281,-0.30859 16,16 0 0 0 0.12695,-0.3125 16,16 0 0 0 0.1211,-0.3125 16,16 0 0 0 0.11523,-0.31641 16,16 0 0 0 0.10742,-0.31836 16,16 0 0 0 0.10156,-0.32226 16,16 0 0 0 0.0937,-0.32227 16,16 0 0 0 0.0879,-0.32422 16,16 0 0 0 0.0801,-0.32617 16,16 0 0 0 0.0742,-0.33008 16,16 0 0 0 0.0664,-0.32812 16,16 0 0 0 0.0586,-0.33203 16,16 0 0 0 0.0527,-0.33203 16,16 0 0 0 0.0469,-0.33203 16,16 0 0 0 0.0391,-0.33594 16,16 0 0 0 0.0312,-0.33399 16,16 0 0 0 0.0254,-0.33593 16,16 0 0 0 0.0176,-0.33594 16,16 0 0 0 0.01,-0.33594 16,16 0 0 0 0.004,-0.33594 v -84.53906 a 83.994247,83.994247 0 0 0 -0.86523,3.03516 83.15036,83.15036 0 0 0 -52.69727,-18.83203 z m 197.30079,84.33593 a 15.86,15.86 0 0 0 -0.33399,0.006 15.86,15.86 0 0 0 -0.33594,0.0137 15.86,15.86 0 0 0 -0.33398,0.0195 15.86,15.86 0 0 0 -0.33399,0.0273 15.86,15.86 0 0 0 -0.33203,0.0352 15.86,15.86 0 0 0 -0.33203,0.041 15.86,15.86 0 0 0 -0.33203,0.0488 15.86,15.86 0 0 0 -0.33008,0.0547 15.86,15.86 0 0 0 -0.33008,0.0625 15.86,15.86 0 0 0 -0.32617,0.0684 15.86,15.86 0 0 0 -0.32617,0.0762 15.86,15.86 0 0 0 -0.32422,0.084 15.86,15.86 0 0 0 -0.32422,0.0898 15.86,15.86 0 0 0 -0.32031,0.0957 15.86,15.86 0 0 0 -0.31836,0.10352 15.86,15.86 0 0 0 -0.3164,0.11132 15.86,15.86 0 0 0 -0.3125,0.11524 15.86,15.86 0 0 0 -0.3125,0.125 15.86,15.86 0 0 0 -0.3086,0.1289 15.86,15.86 0 0 0 -0.30664,0.13672 15.86,15.86 0 0 0 -0.30273,0.14258 15.86,15.86 0 0 0 -0.29883,0.14844 15.86,15.86 0 0 0 -0.29688,0.15625 15.86,15.86 0 0 0 -0.29297,0.16211 15.86,15.86 0 0 0 -0.29101,0.16797 15.86,15.86 0 0 0 -0.28516,0.17382 15.86,15.86 0 0 0 -0.2832,0.17969 15.86,15.86 0 0 0 -0.27734,0.18555 15.86,15.86 0 0 0 -0.2754,0.19141 15.86,15.86 0 0 0 -0.26953,0.19726 15.86,15.86 0 0 0 -0.26757,0.20313 15.86,15.86 0 0 0 -0.26172,0.20898 15.86,15.86 0 0 0 -0.25782,0.21484 15.86,15.86 0 0 0 -0.25195,0.21875 15.86,15.86 0 0 0 -0.24805,0.22461 15.86,15.86 0 0 0 -0.24414,0.23047 15.86,15.86 0 0 0 -0.23828,0.23438 15.86,15.86 0 0 0 -0.23242,0.24023 15.86,15.86 0 0 0 -0.22852,0.2461 15.86,15.86 0 0 0 -0.22265,0.25 15.86,15.86 0 0 0 -0.21875,0.2539 15.86,15.86 0 0 0 -0.21289,0.25781 15.86,15.86 0 0 0 -0.20703,0.26368 15.86,15.86 0 0 0 -0.20118,0.26757 15.86,15.86 0 0 0 -0.19531,0.27344 15.86,15.86 0 0 0 -0.18945,0.27539 15.86,15.86 0 0 0 -0.18359,0.2793 15.86,15.86 0 0 0 -0.17774,0.2832 15.86,15.86 0 0 0 -0.17187,0.28711 15.86,15.86 0 0 0 -0.16602,0.29102 15.86,15.86 0 0 0 -0.16016,0.29492 15.86,15.86 0 0 0 -0.15234,0.29883 15.86,15.86 0 0 0 -0.14844,0.30078 15.86,15.86 0 0 0 -0.14062,0.30273 15.86,15.86 0 0 0 -0.13281,0.30664 15.86,15.86 0 0 0 -0.12891,0.31055 15.86,15.86 0 0 0 -0.12109,0.3125 15.86,15.86 0 0 0 -0.11329,0.31445 15.86,15.86 0 0 0 -0.10937,0.31641 15.86,15.86 0 0 0 -0.0996,0.32031 15.86,15.86 0 0 0 -0.0957,0.32032 15.86,15.86 0 0 0 -0.0859,0.32421 15.86,15.86 0 0 0 -0.082,0.32422 15.86,15.86 0 0 0 -0.0742,0.32617 15.86,15.86 0 0 0 -0.0664,0.32813 15.86,15.86 0 0 0 -0.0605,0.33008 15.86,15.86 0 0 0 -0.0527,0.33008 15.86,15.86 0 0 0 -0.0449,0.33203 15.86,15.86 0 0 0 -0.0391,0.33203 15.86,15.86 0 0 0 -0.0332,0.33398 15.86,15.86 0 0 0 -0.0234,0.33399 15.86,15.86 0 0 0 -0.0195,0.33398 15.86,15.86 0 0 0 -0.01,0.33594 15.86,15.86 0 0 0 -0.004,0.33398 v 0.56055 a 47.59,47.59 0 0 0 0.002,0.43164 47.59,47.59 0 0 0 0.01,0.58008 47.59,47.59 0 0 0 0.0156,0.58008 47.59,47.59 0 0 0 0.0215,0.57812 47.59,47.59 0 0 0 0.0312,0.58008 47.59,47.59 0 0 0 0.0371,0.57813 47.59,47.59 0 0 0 0.043,0.58007 47.59,47.59 0 0 0 0.0508,0.57617 47.59,47.59 0 0 0 0.0586,0.57813 47.59,47.59 0 0 0 0.0664,0.57617 47.59,47.59 0 0 0 0.0723,0.57617 47.59,47.59 0 0 0 0.0781,0.57422 47.59,47.59 0 0 0 0.0859,0.57422 47.59,47.59 0 0 0 0.0937,0.57227 47.59,47.59 0 0 0 0.0996,0.57031 47.59,47.59 0 0 0 0.10742,0.57031 47.59,47.59 0 0 0 0.11524,0.56836 47.59,47.59 0 0 0 0.12109,0.56836 47.59,47.59 0 0 0 0.12695,0.56641 47.59,47.59 0 0 0 0.13477,0.56445 47.59,47.59 0 0 0 0.14258,0.5625 47.59,47.59 0 0 0 0.14843,0.56055 47.59,47.59 0 0 0 0.1543,0.55859 47.59,47.59 0 0 0 0.16211,0.55664 47.59,47.59 0 0 0 0.16992,0.55469 47.59,47.59 0 0 0 0.17578,0.55273 47.59,47.59 0 0 0 0.18164,0.55078 47.59,47.59 0 0 0 0.18946,0.54883 47.59,47.59 0 0 0 0.19531,0.54492 47.59,47.59 0 0 0 0.20312,0.54493 47.59,47.59 0 0 0 0.20899,0.54101 47.59,47.59 0 0 0 0.21484,0.53906 47.59,47.59 0 0 0 0.22266,0.53516 47.59,47.59 0 0 0 0.22851,0.5332 47.59,47.59 0 0 0 0.23633,0.5293 47.59,47.59 0 0 0 0.24024,0.52734 47.59,47.59 0 0 0 0.24804,0.52539 47.59,47.59 0 0 0 0.25586,0.52149 47.59,47.59 0 0 0 0.25977,0.51758 47.59,47.59 0 0 0 0.26758,0.51562 47.59,47.59 0 0 0 0.27343,0.51172 47.59,47.59 0 0 0 0.2793,0.50781 47.59,47.59 0 0 0 0.28516,0.50586 47.59,47.59 0 0 0 0.29297,0.5 47.59,47.59 0 0 0 0.29687,0.49805 47.59,47.59 0 0 0 0.30469,0.49414 47.59,47.59 0 0 0 0.30859,0.49023 47.59,47.59 0 0 0 0.31641,0.48633 47.59,47.59 0 0 0 0.32226,0.48243 47.59,47.59 0 0 0 0.32813,0.47851 47.59,47.59 0 0 0 0.33203,0.47461 47.59,47.59 0 0 0 0.33984,0.4707 47.59,47.59 0 0 0 0.34571,0.4668 47.59,47.59 0 0 0 0.34961,0.46289 47.59,47.59 0 0 0 0.35742,0.45703 47.59,47.59 0 0 0 0.36133,0.45313 47.59,47.59 0 0 0 0.36718,0.44922 47.59,47.59 0 0 0 0.37305,0.44531 47.59,47.59 0 0 0 0.37695,0.43945 47.59,47.59 0 0 0 0.38477,0.43555 47.59,47.59 0 0 0 0.38867,0.42969 47.59,47.59 0 0 0 0.39258,0.42578 47.59,47.59 0 0 0 0.40039,0.42187 47.59,47.59 0 0 0 0.4043,0.41602 47.59,47.59 0 0 0 0.4082,0.41211 47.59,47.59 0 0 0 0.41406,0.40625 47.59,47.59 0 0 0 0.41992,0.40039 47.59,47.59 0 0 0 0.42383,0.39648 47.59,47.59 0 0 0 0.42774,0.39063 47.59,47.59 0 0 0 0.43359,0.38476 47.59,47.59 0 0 0 0.43945,0.38086 47.59,47.59 0 0 0 0.44141,0.37305 47.59,47.59 0 0 0 0.44727,0.37109 47.59,47.59 0 0 0 0.45312,0.36328 47.59,47.59 0 0 0 0.45508,0.35743 47.59,47.59 0 0 0 0.46094,0.35351 47.59,47.59 0 0 0 0.46484,0.34766 47.59,47.59 0 0 0 0.46875,0.33984 47.59,47.59 0 0 0 0.47266,0.33594 47.59,47.59 0 0 0 0.47851,0.33008 47.59,47.59 0 0 0 0.48047,0.32422 47.59,47.59 0 0 0 0.48633,0.31836 47.59,47.59 0 0 0 0.48828,0.3125 47.59,47.59 0 0 0 0.49219,0.30664 47.59,47.59 0 0 0 0.49609,0.29882 47.59,47.59 0 0 0 0.5,0.29493 47.59,47.59 0 0 0 0.50391,0.28711 47.59,47.59 0 0 0 0.50781,0.2832 47.59,47.59 0 0 0 0.50977,0.27539 47.59,47.59 0 0 0 0.51367,0.26953 47.59,47.59 0 0 0 0.51758,0.26172 47.59,47.59 0 0 0 0.51953,0.25781 47.59,47.59 0 0 0 0.52343,0.25 47.59,47.59 0 0 0 0.52539,0.24414 47.59,47.59 0 0 0 0.5293,0.23828 47.59,47.59 0 0 0 0.5332,0.23047 47.59,47.59 0 0 0 0.53516,0.22461 47.59,47.59 0 0 0 0.53711,0.21875 47.59,47.59 0 0 0 0.53906,0.21094 47.59,47.59 0 0 0 0.54297,0.20508 47.59,47.59 0 0 0 0.54492,0.19726 47.59,47.59 0 0 0 0.54883,0.19336 47.59,47.59 0 0 0 0.54883,0.1836 47.59,47.59 0 0 0 0.55273,0.17968 47.59,47.59 0 0 0 0.55469,0.16992 47.59,47.59 0 0 0 0.55469,0.16602 47.59,47.59 0 0 0 0.55859,0.1582 47.59,47.59 0 0 0 0.56055,0.15039 47.59,47.59 0 0 0 0.5625,0.14454 47.59,47.59 0 0 0 0.5625,0.13671 47.59,47.59 0 0 0 0.56445,0.13086 47.59,47.59 0 0 0 0.56836,0.12305 47.59,47.59 0 0 0 0.56836,0.11719 47.59,47.59 0 0 0 0.56836,0.10937 47.59,47.59 0 0 0 0.57227,0.10352 47.59,47.59 0 0 0 0.57031,0.0957 47.59,47.59 0 0 0 0.57422,0.0899 47.59,47.59 0 0 0 0.57422,0.0801 47.59,47.59 0 0 0 0.57617,0.0762 47.59,47.59 0 0 0 0.57422,0.0684 47.59,47.59 0 0 0 0.57812,0.0605 47.59,47.59 0 0 0 0.57813,0.0527 47.59,47.59 0 0 0 0.57812,0.0469 47.59,47.59 0 0 0 0.57813,0.041 47.59,47.59 0 0 0 0.57812,0.0312 47.59,47.59 0 0 0 0.58008,0.0254 47.59,47.59 0 0 0 0.58008,0.0195 47.59,47.59 0 0 0 0.58008,0.0117 47.59,47.59 0 0 0 0.58007,0.004 h 35.25 c 2.42001,0 4.45513,0.22422 6.14649,0.62891 1.69136,0.40469 3.03884,0.98914 4.08398,1.71289 1.04515,0.72375 1.78818,1.58578 2.26953,2.54297 0.48136,0.95719 0.70118,2.01023 0.70118,3.11523 v 16.19922 a 8.22,8.22 0 0 1 -0.002,0.0664 8.22,8.22 0 0 1 -0.0117,0.24023 8.22,8.22 0 0 1 -0.0195,0.24219 8.22,8.22 0 0 1 -0.0254,0.23828 8.22,8.22 0 0 1 -0.0332,0.24024 8.22,8.22 0 0 1 -0.0391,0.23632 8.22,8.22 0 0 1 -0.0469,0.23633 8.22,8.22 0 0 1 -0.0547,0.23633 8.22,8.22 0 0 1 -0.0605,0.23242 8.22,8.22 0 0 1 -0.0664,0.23242 8.22,8.22 0 0 1 -0.0742,0.22852 8.22,8.22 0 0 1 -0.0801,0.22656 8.22,8.22 0 0 1 -0.0879,0.22461 8.22,8.22 0 0 1 -0.0937,0.22266 8.22,8.22 0 0 1 -0.10156,0.21875 8.22,8.22 0 0 1 -0.10742,0.2168 8.22,8.22 0 0 1 -0.11328,0.21289 8.22,8.22 0 0 1 -0.11914,0.20898 8.22,8.22 0 0 1 -0.125,0.20703 8.22,8.22 0 0 1 -0.13086,0.20117 8.22,8.22 0 0 1 -0.13672,0.19727 8.22,8.22 0 0 1 -0.14453,0.19531 8.22,8.22 0 0 1 -0.14844,0.18945 8.22,8.22 0 0 1 -0.1543,0.18555 8.22,8.22 0 0 1 -0.16015,0.17969 8.22,8.22 0 0 1 -0.16406,0.17578 8.22,8.22 0 0 1 -0.16993,0.17188 8.22,8.22 0 0 1 -0.17382,0.16601 8.22,8.22 0 0 1 -0.17969,0.16016 8.22,8.22 0 0 1 -0.18555,0.15625 8.22,8.22 0 0 1 -0.1875,0.15039 8.22,8.22 0 0 1 -0.19336,0.14453 8.22,8.22 0 0 1 -0.19726,0.13867 8.22,8.22 0 0 1 -0.20118,0.13281 8.22,8.22 0 0 1 -0.20507,0.12696 8.22,8.22 0 0 1 -0.20899,0.12109 8.22,8.22 0 0 1 -0.21094,0.11328 8.22,8.22 0 0 1 -0.21679,0.10938 8.22,8.22 0 0 1 -0.21875,0.10156 8.22,8.22 0 0 1 -0.22071,0.0957 8.22,8.22 0 0 1 -0.2246,0.0879 8.22,8.22 0 0 1 -0.22657,0.084 8.22,8.22 0 0 1 -0.22851,0.0742 8.22,8.22 0 0 1 -0.23047,0.0703 8.22,8.22 0 0 1 -0.23242,0.0625 8.22,8.22 0 0 1 -0.23438,0.0547 8.22,8.22 0 0 1 -0.23633,0.0488 8.22,8.22 0 0 1 -0.23828,0.041 8.22,8.22 0 0 1 -0.23828,0.0352 8.22,8.22 0 0 1 -0.24023,0.0273 8.22,8.22 0 0 1 -0.24024,0.0195 8.22,8.22 0 0 1 -0.24023,0.0137 c -2.7825,0.1425 -5.46726,0.36284 -8.06446,0.66407 -2.59719,0.30121 -5.10708,0.68399 -7.5371,1.14648 -2.43003,0.46249 -4.78153,1.00647 -7.0625,1.63281 -2.28098,0.62634 -4.49057,1.33421 -6.64063,2.12695 -2.15006,0.79276 -4.24007,1.66913 -6.27734,2.63086 -2.03727,0.96174 -4.02224,2.0093 -5.96485,3.14258 -1.94261,1.13329 -3.8429,2.35276 -5.70898,3.66016 -1.86608,1.3074 -3.69818,2.70146 -5.50586,4.18555 -3.61536,2.96817 -7.13251,6.29405 -10.62305,9.98437 -3.49053,3.69032 -6.9541,7.74668 -10.46484,12.17969 -3.51074,4.433 -7.06816,9.24127 -10.74414,14.4375 -3.67598,5.19623 -7.47078,10.77976 -11.45703,16.75976 l -6.3086,9.47071 a 8,8 0 0 1 -0.10167,0.14826 8,8 0 0 1 -0.13867,0.19141 8,8 0 0 1 -0.14453,0.18945 8,8 0 0 1 -0.15235,0.1836 8,8 0 0 1 -0.15429,0.17969 8,8 0 0 1 -0.16211,0.17578 8,8 0 0 1 -0.16602,0.16992 8,8 0 0 1 -0.17187,0.16406 8,8 0 0 1 -0.17578,0.16016 8,8 0 0 1 -0.18165,0.15429 8,8 0 0 1 -0.18554,0.14844 8,8 0 0 1 -0.18946,0.14453 8,8 0 0 1 -0.19335,0.13672 8,8 0 0 1 -0.19727,0.13281 8,8 0 0 1 -0.20313,0.125 8,8 0 0 1 -0.20507,0.11914 8,8 0 0 1 -0.20899,0.11524 8,8 0 0 1 -0.21289,0.10742 8,8 0 0 1 -0.21484,0.0996 8,8 0 0 1 -0.2168,0.0957 8,8 0 0 1 -0.22266,0.0879 8,8 0 0 1 -0.22265,0.082 8,8 0 0 1 -0.22656,0.0742 8,8 0 0 1 -0.22657,0.0684 8,8 0 0 1 -0.23047,0.0605 8,8 0 0 1 -0.23046,0.0547 8,8 0 0 1 -0.23438,0.0488 8,8 0 0 1 -0.23437,0.0391 8,8 0 0 1 -0.23438,0.0351 8,8 0 0 1 -0.23633,0.0254 8,8 0 0 1 -0.23828,0.0195 8,8 0 0 1 -0.23633,0.0137 8,8 0 0 1 -0.23828,0.006 8,8 0 0 1 -0.23828,-0.002 8,8 0 0 1 -0.23633,-0.01 8,8 0 0 1 -0.23828,-0.0156 8,8 0 0 1 -0.23633,-0.0234 8,8 0 0 1 -0.23633,-0.0293 8,8 0 0 1 -0.23437,-0.0371 8,8 0 0 1 -0.23437,-0.043 8,8 0 0 1 -0.23243,-0.0508 8,8 0 0 1 -0.23047,-0.0586 8,8 0 0 1 -0.22851,-0.0645 8,8 0 0 1 -0.22656,-0.0703 8,8 0 0 1 -0.22461,-0.0781 8,8 0 0 1 -0.22266,-0.084 8,8 0 0 1 -0.2207,-0.0918 8,8 0 0 1 -0.2168,-0.0976 8,8 0 0 1 -0.21289,-0.10352 8,8 0 0 1 -0.21094,-0.11133 8,8 0 0 1 -0.20703,-0.11523 8,8 0 0 1 -0.20508,-0.12305 8,8 0 0 1 -0.19922,-0.1289 l -13.31054,-8.87891 a 8,8 0 0 1 -0.14844,-0.10156 8,8 0 0 1 -0.19336,-0.13867 8,8 0 0 1 -0.1875,-0.14649 8,8 0 0 1 -0.18359,-0.15039 8,8 0 0 1 -0.17969,-0.15625 8,8 0 0 1 -0.17578,-0.16016 8,8 0 0 1 -0.16992,-0.16601 8,8 0 0 1 -0.16407,-0.17188 8,8 0 0 1 -0.16015,-0.17578 8,8 0 0 1 -0.1543,-0.18164 8,8 0 0 1 -0.14844,-0.18554 8,8 0 0 1 -0.14453,-0.18946 8,8 0 0 1 -0.13672,-0.19336 8,8 0 0 1 -0.13281,-0.19726 8,8 0 0 1 -0.125,-0.20313 8,8 0 0 1 -0.12109,-0.20508 8,8 0 0 1 -0.11328,-0.20898 8,8 0 0 1 -0.10743,-0.21094 8,8 0 0 1 -0.10156,-0.21679 8,8 0 0 1 -0.0937,-0.2168 8,8 0 0 1 -0.0898,-0.2207 8,8 0 0 1 -0.0801,-0.22461 8,8 0 0 1 -0.0762,-0.22461 8,8 0 0 1 -0.0684,-0.22852 8,8 0 0 1 -0.0606,-0.23047 8,8 0 0 1 -0.0547,-0.23047 8,8 0 0 1 -0.0469,-0.23437 8,8 0 0 1 -0.041,-0.23438 8,8 0 0 1 -0.0332,-0.23437 8,8 0 0 1 -0.0273,-0.23633 8,8 0 0 1 -0.0195,-0.23633 8,8 0 0 1 -0.0117,-0.23828 8,8 0 0 1 -0.006,-0.23828 8,8 0 0 1 0.002,-0.23828 8,8 0 0 1 0.008,-0.23633 8,8 0 0 1 0.0156,-0.23828 8,8 0 0 1 0.0234,-0.23633 8,8 0 0 1 0.0293,-0.23633 8,8 0 0 1 0.0371,-0.23437 8,8 0 0 1 0.043,-0.23438 8,8 0 0 1 0.0508,-0.23242 8,8 0 0 1 0.0586,-0.23047 8,8 0 0 1 0.0645,-0.22851 8,8 0 0 1 0.0703,-0.22657 8,8 0 0 1 0.0781,-0.2246 8,8 0 0 1 0.084,-0.22266 8,8 0 0 1 0.0918,-0.2207 8,8 0 0 1 0.0977,-0.2168 8,8 0 0 1 0.10352,-0.21289 8,8 0 0 1 0.11133,-0.21094 8,8 0 0 1 0.11523,-0.20703 8,8 0 0 1 0.12305,-0.20508 8,8 0 0 1 0.1289,-0.19922 l 6.31055,-9.4707 c 3.9325,-5.9 7.78706,-11.55382 11.62305,-16.94727 3.83599,-5.39344 7.6543,-10.526 11.51562,-15.38476 3.86132,-4.85876 7.76495,-9.44429 11.77344,-13.74024 4.00849,-4.29594 8.12094,-8.30281 12.39844,-12.00781 a 64.34,64.34 0 0 1 -0.16992,-0.0547 64.34,64.34 0 0 1 -0.64063,-0.21093 64.34,64.34 0 0 1 -0.63867,-0.2168 64.34,64.34 0 0 1 -0.63672,-0.22461 64.34,64.34 0 0 1 -0.63281,-0.23047 64.34,64.34 0 0 1 -0.63281,-0.23828 64.34,64.34 0 0 1 -0.62891,-0.24414 64.34,64.34 0 0 1 -0.625,-0.25 64.34,64.34 0 0 1 -0.625,-0.25586 64.34,64.34 0 0 1 -0.61914,-0.26367 64.34,64.34 0 0 1 -0.61914,-0.27149 64.34,64.34 0 0 1 -0.61524,-0.27539 64.34,64.34 0 0 1 -0.61132,-0.2832 64.34,64.34 0 0 1 -0.60938,-0.28906 64.34,64.34 0 0 1 -0.60742,-0.29688 64.34,64.34 0 0 1 -0.60156,-0.30273 64.34,64.34 0 0 1 -0.59961,-0.3086 64.34,64.34 0 0 1 -0.59766,-0.31445 64.34,64.34 0 0 1 -0.59375,-0.32031 64.34,64.34 0 0 1 -0.58984,-0.32813 64.34,64.34 0 0 1 -0.58594,-0.33203 64.34,64.34 0 0 1 -0.58203,-0.33984 64.34,64.34 0 0 1 -0.58008,-0.3457 64.34,64.34 0 0 1 -0.57617,-0.35157 64.34,64.34 0 0 1 -0.57031,-0.35742 64.34,64.34 0 0 1 -0.56836,-0.36328 64.34,64.34 0 0 1 -0.56446,-0.36914 64.34,64.34 0 0 1 -0.56054,-0.37695 64.34,64.34 0 0 1 -0.55664,-0.38086 64.34,64.34 0 0 1 -0.55274,-0.38672 64.34,64.34 0 0 1 -0.54687,-0.39258 64.34,64.34 0 0 1 -0.54493,-0.39844 64.34,64.34 0 0 1 -0.54101,-0.40429 64.34,64.34 0 0 1 -0.53516,-0.41016 64.34,64.34 0 0 1 -0.53125,-0.41602 64.34,64.34 0 0 1 -0.52734,-0.41992 64.34,64.34 0 0 1 -0.52149,-0.42773 64.34,64.34 0 0 1 -0.51757,-0.43164 64.34,64.34 0 0 1 -0.51368,-0.4375 64.34,64.34 0 0 1 -0.50976,-0.44336 64.34,64.34 0 0 1 -0.50391,-0.44727 64.34,64.34 0 0 1 -0.5,-0.45312 64.34,64.34 0 0 1 -0.49414,-0.45899 64.34,64.34 0 0 1 -0.49023,-0.46289 64.34,64.34 0 0 1 -0.48438,-0.46875 64.34,64.34 0 0 1 -0.48047,-0.47461 64.34,64.34 0 0 1 -0.47461,-0.47851 64.34,64.34 0 0 1 -0.4707,-0.48438 64.34,64.34 0 0 1 -0.46484,-0.48828 64.34,64.34 0 0 1 -0.45899,-0.49414 64.34,64.34 0 0 1 -0.45508,-0.49805 64.34,64.34 0 0 1 -0.44921,-0.50195 64.34,64.34 0 0 1 -0.44336,-0.50781 64.34,64.34 0 0 1 -0.43946,-0.51367 64.34,64.34 0 0 1 -0.43164,-0.51563 64.34,64.34 0 0 1 -0.42773,-0.52148 64.34,64.34 0 0 1 -0.42383,-0.52735 64.34,64.34 0 0 1 -0.41601,-0.52929 64.34,64.34 0 0 1 -0.41016,-0.53516 64.34,64.34 0 0 1 -0.40625,-0.53906 64.34,64.34 0 0 1 -0.40039,-0.54297 64.34,64.34 0 0 1 -0.39453,-0.54688 64.34,64.34 0 0 1 -0.38867,-0.55273 64.34,64.34 0 0 1 -0.38086,-0.55469 64.34,64.34 0 0 1 -0.37696,-0.56055 64.34,64.34 0 0 1 -0.37109,-0.5625 64.34,64.34 0 0 1 -0.36524,-0.5664 64.34,64.34 0 0 1 -0.35937,-0.57227 64.34,64.34 0 0 1 -0.35352,-0.57422 64.34,64.34 0 0 1 -0.3457,-0.57812 64.34,64.34 0 0 1 -0.3418,-0.58203 64.34,64.34 0 0 1 -0.33398,-0.58594 64.34,64.34 0 0 1 -0.32813,-0.58984 64.34,64.34 0 0 1 -0.32226,-0.5918 64.34,64.34 0 0 1 -0.31641,-0.5957 64.34,64.34 0 0 1 -0.31054,-0.59961 64.34,64.34 0 0 1 -0.30274,-0.60157 64.34,64.34 0 0 1 -0.29687,-0.60546 64.34,64.34 0 0 1 -0.29102,-0.60938 64.34,64.34 0 0 1 -0.28516,-0.61133 47.4,47.4 0 0 1 -0.17187,0.0918 47.4,47.4 0 0 1 -0.51367,0.26562 47.4,47.4 0 0 1 -0.51758,0.25977 47.4,47.4 0 0 1 -0.52149,0.25195 47.4,47.4 0 0 1 -0.52343,0.24805 47.4,47.4 0 0 1 -0.52735,0.24023 47.4,47.4 0 0 1 -0.52929,0.23438 47.4,47.4 0 0 1 -0.53125,0.22656 47.4,47.4 0 0 1 -0.53516,0.2207 47.4,47.4 0 0 1 -0.53906,0.21485 47.4,47.4 0 0 1 -0.53906,0.20898 47.4,47.4 0 0 1 -0.54297,0.20117 47.4,47.4 0 0 1 -0.54493,0.19336 47.4,47.4 0 0 1 -0.54882,0.18946 47.4,47.4 0 0 1 -0.54883,0.17968 47.4,47.4 0 0 1 -0.55274,0.17579 47.4,47.4 0 0 1 -0.55468,0.16797 47.4,47.4 0 0 1 -0.55469,0.16015 47.4,47.4 0 0 1 -0.55859,0.1543 47.4,47.4 0 0 1 -0.56055,0.14648 47.4,47.4 0 0 1 -0.56055,0.14063 47.4,47.4 0 0 1 -0.56445,0.13476 47.4,47.4 0 0 1 -0.56445,0.12696 47.4,47.4 0 0 1 -0.56641,0.11914 47.4,47.4 0 0 1 -0.56836,0.11328 47.4,47.4 0 0 1 -0.56836,0.10547 47.4,47.4 0 0 1 -0.57031,0.0996 47.4,47.4 0 0 1 -0.57227,0.0918 47.4,47.4 0 0 1 -0.57226,0.0859 47.4,47.4 0 0 1 -0.57422,0.0781 47.4,47.4 0 0 1 -0.57422,0.0703 47.4,47.4 0 0 1 -0.57422,0.0644 47.4,47.4 0 0 1 -0.57617,0.0566 47.4,47.4 0 0 1 -0.57813,0.0488 47.4,47.4 0 0 1 -0.57617,0.043 47.4,47.4 0 0 1 -0.57812,0.0371 47.4,47.4 0 0 1 -0.57813,0.0273 47.4,47.4 0 0 1 -0.57812,0.0234 47.4,47.4 0 0 1 -0.58008,0.0137 47.4,47.4 0 0 1 -0.57813,0.008 h -32 a 47.65,47.65 0 0 1 -0.31445,-0.002 47.65,47.65 0 0 1 -0.58008,-0.01 47.65,47.65 0 0 1 -0.58008,-0.0156 47.65,47.65 0 0 1 -0.58007,-0.0234 47.65,47.65 0 0 1 -0.58008,-0.0312 47.65,47.65 0 0 1 -0.58008,-0.0371 47.65,47.65 0 0 1 -0.57813,-0.0449 47.65,47.65 0 0 1 -0.57812,-0.0508 47.65,47.65 0 0 1 -0.57812,-0.0605 47.65,47.65 0 0 1 -0.57618,-0.0645 47.65,47.65 0 0 1 -0.57617,-0.0723 47.65,47.65 0 0 1 -0.57422,-0.0801 47.65,47.65 0 0 1 -0.57422,-0.0879 47.65,47.65 0 0 1 -0.57226,-0.0937 47.65,47.65 0 0 1 -0.57227,-0.0996 47.65,47.65 0 0 1 -0.57031,-0.10743 47.65,47.65 0 0 1 -0.56836,-0.11523 47.65,47.65 0 0 1 -0.56836,-0.12109 47.65,47.65 0 0 1 -0.56641,-0.12891 47.65,47.65 0 0 1 -0.56445,-0.13477 47.65,47.65 0 0 1 -0.5625,-0.14257 47.65,47.65 0 0 1 -0.56055,-0.15039 47.65,47.65 0 0 1 -0.55859,-0.1543 47.65,47.65 0 0 1 -0.55859,-0.16406 47.65,47.65 0 0 1 -0.55469,-0.16797 47.65,47.65 0 0 1 -0.55273,-0.17774 47.65,47.65 0 0 1 -0.55079,-0.18164 47.65,47.65 0 0 1 -0.54882,-0.18945 47.65,47.65 0 0 1 -0.54688,-0.19727 47.65,47.65 0 0 1 -0.54297,-0.20312 47.65,47.65 0 0 1 -0.54101,-0.20899 47.65,47.65 0 0 1 -0.53907,-0.21679 47.65,47.65 0 0 1 -0.5371,-0.22266 47.65,47.65 0 0 1 -0.53321,-0.22851 47.65,47.65 0 0 1 -0.52929,-0.23633 47.65,47.65 0 0 1 -0.52735,-0.24219 47.65,47.65 0 0 1 -0.52539,-0.24805 47.65,47.65 0 0 1 -0.52148,-0.25586 47.65,47.65 0 0 1 -0.51758,-0.25976 47.65,47.65 0 0 1 -0.51563,-0.26758 47.65,47.65 0 0 1 -0.51172,-0.27344 47.65,47.65 0 0 1 -0.50781,-0.28125 47.65,47.65 0 0 1 -0.50586,-0.28515 47.65,47.65 0 0 1 -0.50195,-0.29297 47.65,47.65 0 0 1 -0.49805,-0.29883 47.65,47.65 0 0 1 -0.49414,-0.30469 47.65,47.65 0 0 1 -0.49023,-0.30859 47.65,47.65 0 0 1 -0.48633,-0.31641 47.65,47.65 0 0 1 -0.48242,-0.32226 47.65,47.65 0 0 1 -0.47852,-0.32813 47.65,47.65 0 0 1 -0.47461,-0.33398 47.65,47.65 0 0 1 -0.4707,-0.33985 47.65,47.65 0 0 1 -0.4668,-0.3457 47.65,47.65 0 0 1 -0.46289,-0.35156 47.65,47.65 0 0 1 -0.45703,-0.35742 47.65,47.65 0 0 1 -0.45508,-0.36133 47.65,47.65 0 0 1 -0.44922,-0.36719 47.65,47.65 0 0 1 -0.44336,-0.37305 47.65,47.65 0 0 1 -0.4414,-0.3789 47.65,47.65 0 0 1 -0.4336,-0.38477 47.65,47.65 0 0 1 -0.43164,-0.38867 47.65,47.65 0 0 1 -0.23242,0.21094 47.65,47.65 0 0 1 -0.43359,0.38672 47.65,47.65 0 0 1 -0.4375,0.38086 47.65,47.65 0 0 1 -0.44336,0.375 47.65,47.65 0 0 1 -0.44727,0.37109 47.65,47.65 0 0 1 -0.45117,0.36523 47.65,47.65 0 0 1 -0.45508,0.35938 47.65,47.65 0 0 1 -0.46093,0.35351 47.65,47.65 0 0 1 -0.46485,0.34766 47.65,47.65 0 0 1 -0.46875,0.3418 47.65,47.65 0 0 1 -0.47265,0.33789 47.65,47.65 0 0 1 -0.47657,0.33008 47.65,47.65 0 0 1 -0.48047,0.32421 47.65,47.65 0 0 1 -0.48632,0.32032 47.65,47.65 0 0 1 -0.48828,0.3125 47.65,47.65 0 0 1 -0.49219,0.30664 47.65,47.65 0 0 1 -0.4961,0.30078 47.65,47.65 0 0 1 -0.5,0.29687 47.65,47.65 0 0 1 -0.5039,0.28907 47.65,47.65 0 0 1 -0.50586,0.28125 47.65,47.65 0 0 1 -0.51172,0.27734 47.65,47.65 0 0 1 -0.51367,0.26953 47.65,47.65 0 0 1 -0.51563,0.26563 47.65,47.65 0 0 1 -0.52148,0.25781 47.65,47.65 0 0 1 -0.52149,0.25 47.65,47.65 0 0 1 -0.52734,0.24609 47.65,47.65 0 0 1 -0.5293,0.23828 47.65,47.65 0 0 1 -0.53125,0.23243 47.65,47.65 0 0 1 -0.53515,0.22461 47.65,47.65 0 0 1 -0.53711,0.2207 47.65,47.65 0 0 1 -0.54102,0.21094 47.65,47.65 0 0 1 -0.54297,0.20703 47.65,47.65 0 0 1 -0.54492,0.19922 47.65,47.65 0 0 1 -0.54687,0.19335 47.65,47.65 0 0 1 -0.55079,0.18555 47.65,47.65 0 0 1 -0.55078,0.17969 47.65,47.65 0 0 1 -0.55468,0.17187 47.65,47.65 0 0 1 -0.55664,0.16602 47.65,47.65 0 0 1 -0.5586,0.1582 47.65,47.65 0 0 1 -0.55859,0.15235 47.65,47.65 0 0 1 -0.5625,0.14648 47.65,47.65 0 0 1 -0.56445,0.13867 47.65,47.65 0 0 1 -0.56446,0.13086 47.65,47.65 0 0 1 -0.5664,0.125 47.65,47.65 0 0 1 -0.56836,0.11719 47.65,47.65 0 0 1 -0.57032,0.11133 47.65,47.65 0 0 1 -0.57226,0.10351 47.65,47.65 0 0 1 -0.57227,0.0977 47.65,47.65 0 0 1 -0.57226,0.0898 47.65,47.65 0 0 1 -0.57422,0.082 47.65,47.65 0 0 1 -0.57617,0.0762 47.65,47.65 0 0 1 -0.57618,0.0703 47.65,47.65 0 0 1 -0.57812,0.0606 47.65,47.65 0 0 1 -0.57617,0.0547 47.65,47.65 0 0 1 -0.58008,0.0488 47.65,47.65 0 0 1 -0.57813,0.041 47.65,47.65 0 0 1 -0.58007,0.0332 47.65,47.65 0 0 1 -0.58008,0.0273 47.65,47.65 0 0 1 -0.58008,0.0195 47.65,47.65 0 0 1 -0.58008,0.0117 47.65,47.65 0 0 1 -0.58008,0.006 h -32 a 47.26,47.26 0 0 1 -0.16406,-0.002 47.26,47.26 0 0 1 -0.57812,-0.0117 47.26,47.26 0 0 1 -0.57813,-0.0176 47.26,47.26 0 0 1 -0.57812,-0.0254 47.26,47.26 0 0 1 -0.57618,-0.0312 47.26,47.26 0 0 1 -0.57812,-0.0391 47.26,47.26 0 0 1 -0.57617,-0.0469 47.26,47.26 0 0 1 -0.57422,-0.0527 47.26,47.26 0 0 1 -0.57617,-0.0605 47.26,47.26 0 0 1 -0.57422,-0.0664 47.26,47.26 0 0 1 -0.57227,-0.0742 47.26,47.26 0 0 1 -0.57226,-0.082 47.26,47.26 0 0 1 -0.57227,-0.0879 47.26,47.26 0 0 1 -0.57031,-0.0957 47.26,47.26 0 0 1 -0.56836,-0.10351 47.26,47.26 0 0 1 -0.56836,-0.10742 47.26,47.26 0 0 1 -0.56445,-0.11719 47.26,47.26 0 0 1 -0.56641,-0.12305 47.26,47.26 0 0 1 -0.5625,-0.13086 47.26,47.26 0 0 1 -0.5625,-0.13672 47.26,47.26 0 0 1 -0.55859,-0.14257 47.26,47.26 0 0 1 -0.5586,-0.15039 47.26,47.26 0 0 1 -0.55664,-0.15821 47.26,47.26 0 0 1 -0.55468,-0.16406 47.26,47.26 0 0 1 -0.55079,-0.16992 47.26,47.26 0 0 1 -0.55078,-0.17774 47.26,47.26 0 0 1 -0.54883,-0.18554 47.26,47.26 0 0 1 -0.54492,-0.19141 47.26,47.26 0 0 1 -0.54297,-0.19726 v 77.94921 a 128,128 0 0 0 0,0.29297 128,128 0 0 0 0.006,0.95117 128,128 0 0 0 0.0137,0.95118 128,128 0 0 0 0.0195,0.95117 128,128 0 0 0 0.0273,0.95117 128,128 0 0 0 0.0352,0.94922 128,128 0 0 0 0.041,0.95117 128,128 0 0 0 0.0488,0.95117 128,128 0 0 0 0.0547,0.94922 128,128 0 0 0 0.0625,0.94922 128,128 0 0 0 0.0684,0.94922 128,128 0 0 0 0.0781,0.94726 128,128 0 0 0 0.082,0.94727 128,128 0 0 0 0.0918,0.94727 128,128 0 0 0 0.0977,0.94726 128,128 0 0 0 0.10546,0.94531 128,128 0 0 0 0.11133,0.94532 128,128 0 0 0 0.11914,0.94336 128,128 0 0 0 0.125,0.94336 128,128 0 0 0 0.13282,0.9414 128,128 0 0 0 0.14062,0.94141 128,128 0 0 0 0.14649,0.93945 128,128 0 0 0 0.15234,0.93945 128,128 0 0 0 0.16211,0.9375 128,128 0 0 0 0.16797,0.93555 128,128 0 0 0 0.17383,0.93555 128,128 0 0 0 0.18164,0.93359 128,128 0 0 0 0.18945,0.9336 128,128 0 0 0 0.19531,0.93164 128,128 0 0 0 0.20117,0.92773 128,128 0 0 0 0.20899,0.92969 128,128 0 0 0 0.21679,0.92578 128,128 0 0 0 0.22266,0.92578 128,128 0 0 0 0.23047,0.92188 128,128 0 0 0 0.23633,0.92187 128,128 0 0 0 0.24414,0.91992 128,128 0 0 0 0.25,0.91797 128,128 0 0 0 0.25781,0.91602 128,128 0 0 0 0.26367,0.91406 128,128 0 0 0 0.27149,0.91211 128,128 0 0 0 0.27734,0.9082 128,128 0 0 0 0.2832,0.9082 128,128 0 0 0 0.29297,0.90625 128,128 0 0 0 0.29688,0.9043 128,128 0 0 0 0.30469,0.90039 128,128 0 0 0 0.31054,0.89844 128,128 0 0 0 0.31836,0.89844 128,128 0 0 0 0.32422,0.89257 128,128 0 0 0 0.33203,0.89258 128,128 0 0 0 0.33789,0.88868 128,128 0 0 0 0.34375,0.88671 128,128 0 0 0 0.35156,0.88477 128,128 0 0 0 0.35743,0.88281 128,128 0 0 0 0.36328,0.87891 128,128 0 0 0 0.37109,0.875 128,128 0 0 0 0.37696,0.87304 128,128 0 0 0 0.38476,0.8711 128,128 0 0 0 0.38867,0.86719 128,128 0 0 0 0.39649,0.86523 128,128 0 0 0 0.40429,0.86133 128,128 0 0 0 0.40821,0.85937 128,128 0 0 0 0.41601,0.85547 128,128 0 0 0 0.42188,0.85352 128,128 0 0 0 0.42773,0.84961 128,128 0 0 0 0.43555,0.8457 137.93895,137.93895 0 0 0 103.44336,46.68945 137.93895,137.93895 0 0 0 89.50586,-32.98242 138.03043,138.03043 0 0 0 58.3789,12.95313 138.03043,138.03043 0 0 0 118.14649,-66.66016 96,96 0 0 0 0.0391,-0.71094 96,96 0 0 0 0.0391,-0.82226 96,96 0 0 0 0.0312,-0.82422 96,96 0 0 0 0.0254,-0.82422 96,96 0 0 0 0.0176,-0.82227 96,96 0 0 0 0.01,-0.82421 96,96 0 0 0 0.004,-0.82422 v -88.22071 a 64,64 0 0 0 0,-0.29687 64,64 0 0 0 -0.008,-0.67188 64,64 0 0 0 -0.0137,-0.67187 64,64 0 0 0 -0.0195,-0.67383 64,64 0 0 0 -0.0293,-0.67187 64,64 0 0 0 -0.0352,-0.67188 64,64 0 0 0 -0.041,-0.67187 64,64 0 0 0 -0.0488,-0.66993 64,64 0 0 0 -0.0566,-0.66992 64,64 0 0 0 -0.0625,-0.66992 64,64 0 0 0 -0.0703,-0.66992 64,64 0 0 0 -0.0781,-0.66797 64,64 0 0 0 -0.084,-0.66797 64,64 0 0 0 -0.0898,-0.66601 64,64 0 0 0 -0.0996,-0.66602 64,64 0 0 0 -0.10547,-0.66406 64,64 0 0 0 -0.11133,-0.66211 64,64 0 0 0 -0.11914,-0.66211 64,64 0 0 0 -0.12695,-0.66211 64,64 0 0 0 -0.13282,-0.6582 64,64 0 0 0 -0.13867,-0.65821 64,64 0 0 0 -0.14844,-0.65625 64,64 0 0 0 -0.15234,-0.65625 64,64 0 0 0 -0.16211,-0.65234 64,64 0 0 0 -0.16602,-0.65234 64,64 0 0 0 -0.17578,-0.64844 64,64 0 0 0 -0.17968,-0.64844 64,64 0 0 0 -0.18946,-0.64648 64,64 0 0 0 -0.19336,-0.64258 64,64 0 0 0 -0.20117,-0.64258 64,64 0 0 0 -0.20898,-0.64063 64,64 0 0 0 -0.21485,-0.63671 64,64 0 0 0 -0.22265,-0.63477 64,64 0 0 0 -0.22657,-0.63281 64,64 0 0 0 -0.23632,-0.63086 64,64 0 0 0 -0.24024,-0.62696 64,64 0 0 0 -0.24804,-0.625 64,64 0 0 0 -0.25586,-0.62304 64,64 0 0 0 -0.26172,-0.6211 64,64 0 0 0 -0.26758,-0.61718 64,64 0 0 0 -0.27344,-0.61328 64,64 0 0 0 -0.28125,-0.61133 64,64 0 0 0 -0.28711,-0.60938 64,64 0 0 0 -0.29297,-0.60547 64,64 0 0 0 -0.29883,-0.60156 64,64 0 0 0 -0.30664,-0.59961 64,64 0 0 0 -0.3125,-0.5957 64,64 0 0 0 -0.31836,-0.5918 64,64 0 0 0 -0.32617,-0.58984 64,64 0 0 0 -0.33007,-0.58594 64,64 0 0 0 -0.3379,-0.58203 64,64 0 0 0 -0.34179,-0.57813 64,64 0 0 0 -0.34961,-0.57421 64,64 0 0 0 -0.35547,-0.57227 64,64 0 0 0 -0.36133,-0.56641 64,64 0 0 0 -0.36719,-0.56445 64,64 0 0 0 -0.37304,-0.55859 64,64 0 0 0 -0.37891,-0.55664 64,64 0 0 0 -0.38476,-0.55078 64,64 0 0 0 -0.39063,-0.54883 64,64 0 0 0 -0.39648,-0.54297 64,64 0 0 0 -0.40235,-0.53906 64,64 0 0 0 -0.4082,-0.53516 64,64 0 0 0 -0.41211,-0.53125 64,64 0 0 0 -0.41992,-0.52734 64,64 0 0 0 -0.42383,-0.52149 64,64 0 0 0 -0.42969,-0.51758 64,64 0 0 0 -0.43555,-0.51172 64,64 0 0 0 -0.4414,-0.50976 64,64 0 0 0 -0.44531,-0.50391 64,64 0 0 0 -0.45118,-0.49804 64,64 0 0 0 -0.45703,-0.49415 64,64 0 0 0 -0.46093,-0.49023 64,64 0 0 0 -0.4668,-0.48437 64,64 0 0 0 -0.4707,-0.47852 64,64 0 0 0 -0.47852,-0.47461 64,64 0 0 0 -0.48047,-0.4707 64,64 0 0 0 -0.48633,-0.46289 64,64 0 0 0 -0.49218,-0.46094 64,64 0 0 0 -0.4961,-0.45313 64,64 0 0 0 -0.50195,-0.44921 64,64 0 0 0 -0.50586,-0.44336 64,64 0 0 0 -0.50977,-0.4375 64,64 0 0 0 -0.51562,-0.4336 64,64 0 0 0 -0.51953,-0.42773 64,64 0 0 0 -0.52344,-0.42188 64,64 0 0 0 -0.52734,-0.41601 64,64 0 0 0 -0.53321,-0.41016 64,64 0 0 0 -0.53711,-0.40625 64,64 0 0 0 -0.54101,-0.39844 64,64 0 0 0 -0.54492,-0.39453 64,64 0 0 0 -0.55079,-0.38867 64,64 0 0 0 -0.55273,-0.38281 64,64 0 0 0 -0.55859,-0.375 64,64 0 0 0 -0.56055,-0.3711 64,64 0 0 0 -0.56445,-0.36523 64,64 0 0 0 -0.57032,-0.35742 64,64 0 0 0 -0.57226,-0.35352 64,64 0 0 0 -0.57617,-0.3457 64,64 0 0 0 -0.58008,-0.3418 64,64 0 0 0 -0.58399,-0.33398 64,64 0 0 0 -0.58789,-0.32813 64,64 0 0 0 -0.58984,-0.32226 64,64 0 0 0 -0.59375,-0.31641 64,64 0 0 0 -0.59766,-0.30859 64,64 0 0 0 -0.60156,-0.30274 64,64 0 0 0 -0.60351,-0.29882 64,64 0 0 0 -0.60547,-0.28907 64,64 0 0 0 -0.60938,-0.28515 64,64 0 0 0 -0.61328,-0.27735 64,64 0 0 0 -0.61523,-0.27148 64,64 0 0 0 -0.61914,-0.26563 64,64 0 0 0 -0.6211,-0.25781 64,64 0 0 0 -0.62305,-0.25195 64,64 0 0 0 -0.62695,-0.24414 64,64 0 0 0 -0.6289,-0.24024 64,64 0 0 0 -0.63086,-0.23047 64,64 0 0 0 -0.63477,-0.22656 64,64 0 0 0 -0.63672,-0.21875 64,64 0 0 0 -0.63672,-0.21094 64,64 0 0 0 -0.64062,-0.20507 64,64 0 0 0 -0.64453,-0.19922 64,64 0 0 0 -0.64453,-0.19141 64,64 0 0 0 -0.64649,-0.18555 64,64 0 0 0 -0.64844,-0.17773 64,64 0 0 0 -0.65039,-0.17188 64,64 0 0 0 -0.65234,-0.16406 64,64 0 0 0 -0.6543,-0.1582 64,64 0 0 0 -0.65625,-0.15039 64,64 0 0 0 -0.65625,-0.14453 64,64 0 0 0 -0.6582,-0.13672 64,64 0 0 0 -0.66016,-0.12891 64,64 0 0 0 -0.66211,-0.12305 64,64 0 0 0 -0.66211,-0.11718 64,64 0 0 0 -0.66406,-0.10938 64,64 0 0 0 -0.66406,-0.10156 64,64 0 0 0 -0.66602,-0.0957 64,64 0 0 0 -0.66796,-0.0879 64,64 0 0 0 -0.66797,-0.0801 64,64 0 0 0 -0.66797,-0.0742 64,64 0 0 0 -0.66992,-0.0664 64,64 0 0 0 -0.66993,-0.0605 64,64 0 0 0 -0.66992,-0.0527 64,64 0 0 0 -0.67187,-0.0469 64,64 0 0 0 -0.67188,-0.0391 64,64 0 0 0 -0.67187,-0.0312 64,64 0 0 0 -0.67188,-0.0254 64,64 0 0 0 -0.67187,-0.0176 64,64 0 0 0 -0.67383,-0.01 64,64 0 0 0 -0.67188,-0.004 H 195.51226 a 15.86,15.86 0 0 0 -0.11132,0 z" />
    <path
       id="path907"
       style="fill:#22a4dd;fill-opacity:1"
       d="M 319.37109 0 A 319.37112 319.37112 0 0 0 0 319.37109 A 319.37112 319.37112 0 0 0 319.37109 638.74219 A 319.37112 319.37112 0 0 0 638.74219 319.37109 A 319.37112 319.37112 0 0 0 319.37109 0 z M 390.55469 84.974609 A 66.211258 66.211258 0 0 1 403.37109 86.226562 L 403.37109 223.37109 L 355.37109 223.37109 A 47.56 47.56 0 0 0 354.79102 223.38086 A 47.56 47.56 0 0 0 354.21094 223.39648 A 47.56 47.56 0 0 0 353.63281 223.41992 A 47.56 47.56 0 0 0 353.05273 223.44922 A 47.56 47.56 0 0 0 352.47461 223.48633 A 47.56 47.56 0 0 0 351.89648 223.53125 A 47.56 47.56 0 0 0 351.31836 223.58203 A 47.56 47.56 0 0 0 350.74219 223.64062 A 47.56 47.56 0 0 0 350.16602 223.70508 A 47.56 47.56 0 0 0 349.58984 223.77734 A 47.56 47.56 0 0 0 349.01562 223.85742 A 47.56 47.56 0 0 0 348.44141 223.94336 A 47.56 47.56 0 0 0 347.86914 224.03711 A 47.56 47.56 0 0 0 347.29883 224.13672 A 47.56 47.56 0 0 0 346.72852 224.24414 A 47.56 47.56 0 0 0 346.16016 224.35938 A 47.56 47.56 0 0 0 345.59375 224.48047 A 47.56 47.56 0 0 0 345.02734 224.60742 A 47.56 47.56 0 0 0 344.46289 224.74219 A 47.56 47.56 0 0 0 343.90039 224.88477 A 47.56 47.56 0 0 0 343.33984 225.0332 A 47.56 47.56 0 0 0 342.78125 225.18945 A 47.56 47.56 0 0 0 342.22461 225.35156 A 47.56 47.56 0 0 0 341.66992 225.51953 A 47.56 47.56 0 0 0 341.11719 225.69531 A 47.56 47.56 0 0 0 340.56641 225.87891 A 47.56 47.56 0 0 0 340.01953 226.06836 A 47.56 47.56 0 0 0 339.47266 226.26367 A 47.56 47.56 0 0 0 339.37109 226.30078 L 339.37109 109.18555 A 66.211258 66.211258 0 0 1 390.55469 84.974609 z M 437.11328 104.11133 A 66.211258 66.211258 0 0 1 454.18164 132.87305 A 86.326195 86.326195 0 0 1 477.75781 129.5918 A 86.326195 86.326195 0 0 1 499.37109 132.3418 L 499.37109 229.27148 A 94.76 94.76 0 0 0 498.60156 228.99023 A 94.76 94.76 0 0 0 497.83203 228.7168 A 94.76 94.76 0 0 0 497.05664 228.44727 A 94.76 94.76 0 0 0 496.28125 228.1875 A 94.76 94.76 0 0 0 495.50391 227.93164 A 94.76 94.76 0 0 0 494.72266 227.68555 A 94.76 94.76 0 0 0 493.94141 227.44336 A 94.76 94.76 0 0 0 493.15625 227.20898 A 94.76 94.76 0 0 0 492.37109 226.98242 A 94.76 94.76 0 0 0 491.58203 226.76172 A 94.76 94.76 0 0 0 490.79297 226.54883 A 94.76 94.76 0 0 0 490 226.3418 A 94.76 94.76 0 0 0 489.20703 226.14062 A 94.76 94.76 0 0 0 488.41016 225.94727 A 94.76 94.76 0 0 0 487.61328 225.76172 A 94.76 94.76 0 0 0 486.81445 225.58203 A 94.76 94.76 0 0 0 486.01562 225.41016 A 94.76 94.76 0 0 0 485.21289 225.24414 A 94.76 94.76 0 0 0 484.41016 225.08594 A 94.76 94.76 0 0 0 483.60547 224.93359 A 94.76 94.76 0 0 0 482.80078 224.78906 A 94.76 94.76 0 0 0 481.99414 224.65039 A 94.76 94.76 0 0 0 481.18555 224.51953 A 94.76 94.76 0 0 0 480.37695 224.39648 A 94.76 94.76 0 0 0 479.56641 224.2793 A 94.76 94.76 0 0 0 478.75391 224.16992 A 94.76 94.76 0 0 0 477.94336 224.06641 A 94.76 94.76 0 0 0 477.12891 223.9707 A 94.76 94.76 0 0 0 476.31641 223.88281 A 94.76 94.76 0 0 0 475.50195 223.80078 A 94.76 94.76 0 0 0 474.68555 223.72656 A 94.76 94.76 0 0 0 473.87109 223.6582 A 94.76 94.76 0 0 0 473.05469 223.59766 A 94.76 94.76 0 0 0 472.23828 223.54297 A 94.76 94.76 0 0 0 471.41992 223.49805 A 94.76 94.76 0 0 0 470.60352 223.45703 A 94.76 94.76 0 0 0 469.78516 223.42578 A 94.76 94.76 0 0 0 468.9668 223.40039 A 94.76 94.76 0 0 0 468.14844 223.38281 A 94.76 94.76 0 0 0 467.37109 223.37109 L 435.37109 223.37109 L 435.37109 111.37109 A 16 16 0 0 1 435.375 111.03516 A 16 16 0 0 1 435.38477 110.69922 A 16 16 0 0 1 435.40234 110.36328 A 16 16 0 0 1 435.42773 110.02734 A 16 16 0 0 1 435.45898 109.69336 A 16 16 0 0 1 435.49805 109.35742 A 16 16 0 0 1 435.54492 109.02539 A 16 16 0 0 1 435.59766 108.69336 A 16 16 0 0 1 435.65625 108.36133 A 16 16 0 0 1 435.72266 108.0332 A 16 16 0 0 1 435.79688 107.70312 A 16 16 0 0 1 435.87695 107.37695 A 16 16 0 0 1 435.96484 107.05273 A 16 16 0 0 1 436.05859 106.73047 A 16 16 0 0 1 436.16016 106.4082 A 16 16 0 0 1 436.26758 106.08984 A 16 16 0 0 1 436.38281 105.77344 A 16 16 0 0 1 436.50391 105.46094 A 16 16 0 0 1 436.63086 105.14844 A 16 16 0 0 1 436.76562 104.83984 A 16 16 0 0 1 436.90625 104.53516 A 16 16 0 0 1 437.05273 104.23242 A 16 16 0 0 1 437.11328 104.11133 z M 291.70312 127.37109 A 83.994247 83.994247 0 0 1 307.37109 128.8457 L 307.37109 271.37109 A 16 16 0 0 1 307.36719 271.70703 A 16 16 0 0 1 307.35742 272.04297 A 16 16 0 0 1 307.33984 272.37891 A 16 16 0 0 1 307.31445 272.71484 A 16 16 0 0 1 307.2832 273.04883 A 16 16 0 0 1 307.24414 273.38477 A 16 16 0 0 1 307.19727 273.7168 A 16 16 0 0 1 307.14453 274.04883 A 16 16 0 0 1 307.08594 274.38086 A 16 16 0 0 1 307.01953 274.70898 A 16 16 0 0 1 306.94531 275.03906 A 16 16 0 0 1 306.86523 275.36523 A 16 16 0 0 1 306.77734 275.68945 A 16 16 0 0 1 306.68359 276.01172 A 16 16 0 0 1 306.58203 276.33398 A 16 16 0 0 1 306.47461 276.65234 A 16 16 0 0 1 306.35938 276.96875 A 16 16 0 0 1 306.23828 277.28125 A 16 16 0 0 1 306.11133 277.59375 A 16 16 0 0 1 305.97852 277.90234 A 16 16 0 0 1 305.83789 278.20703 A 16 16 0 0 1 305.68945 278.50977 A 16 16 0 0 1 305.53711 278.80859 A 16 16 0 0 1 305.37695 279.10547 A 16 16 0 0 1 305.21094 279.39844 A 16 16 0 0 1 305.03906 279.6875 A 16 16 0 0 1 304.86133 279.97266 A 16 16 0 0 1 304.67773 280.25391 A 16 16 0 0 1 304.48828 280.5332 A 16 16 0 0 1 304.29297 280.80664 A 16 16 0 0 1 304.0918 281.07617 A 16 16 0 0 1 303.88477 281.3418 A 16 16 0 0 1 303.67383 281.60156 A 16 16 0 0 1 303.45508 281.85742 A 16 16 0 0 1 303.23242 282.10938 A 16 16 0 0 1 303.00391 282.35742 A 16 16 0 0 1 302.76953 282.59961 A 16 16 0 0 1 302.53125 282.83594 A 16 16 0 0 1 302.28906 283.06836 A 16 16 0 0 1 302.03906 283.29492 A 16 16 0 0 1 301.78711 283.51562 A 16 16 0 0 1 301.5293 283.73242 A 16 16 0 0 1 301.26758 283.94336 A 16 16 0 0 1 301 284.14844 A 16 16 0 0 1 300.73047 284.34766 A 16 16 0 0 1 300.45508 284.54297 A 16 16 0 0 1 300.17578 284.73047 A 16 16 0 0 1 299.89258 284.91211 A 16 16 0 0 1 299.60742 285.08789 A 16 16 0 0 1 299.31641 285.25781 A 16 16 0 0 1 299.02344 285.42188 A 16 16 0 0 1 298.72656 285.58008 A 16 16 0 0 1 298.42578 285.73242 A 16 16 0 0 1 298.12305 285.87695 A 16 16 0 0 1 297.81641 286.01562 A 16 16 0 0 1 297.50586 286.14844 A 16 16 0 0 1 297.19531 286.27344 A 16 16 0 0 1 296.88086 286.39258 A 16 16 0 0 1 296.5625 286.50586 A 16 16 0 0 1 296.24414 286.61133 A 16 16 0 0 1 295.92188 286.71094 A 16 16 0 0 1 295.59961 286.80273 A 16 16 0 0 1 295.27344 286.88867 A 16 16 0 0 1 294.94727 286.9668 A 16 16 0 0 1 294.61719 287.03906 A 16 16 0 0 1 294.28711 287.10352 A 16 16 0 0 1 293.95703 287.16016 A 16 16 0 0 1 293.62305 287.21094 A 16 16 0 0 1 293.29102 287.25586 A 16 16 0 0 1 292.95703 287.29297 A 16 16 0 0 1 292.62109 287.32227 A 16 16 0 0 1 292.28516 287.3457 A 16 16 0 0 1 291.94922 287.36133 A 16 16 0 0 1 291.61328 287.36914 A 16 16 0 0 1 291.37109 287.37109 L 259.37109 287.37109 A 16 16 0 0 1 259.03516 287.36719 A 16 16 0 0 1 258.69922 287.35742 A 16 16 0 0 1 258.36328 287.33984 A 16 16 0 0 1 258.02734 287.31445 A 16 16 0 0 1 257.69336 287.2832 A 16 16 0 0 1 257.35742 287.24414 A 16 16 0 0 1 257.02539 287.19727 A 16 16 0 0 1 256.69336 287.14453 A 16 16 0 0 1 256.36133 287.08594 A 16 16 0 0 1 256.03125 287.01953 A 16 16 0 0 1 255.70312 286.94531 A 16 16 0 0 1 255.37695 286.86523 A 16 16 0 0 1 255.05273 286.77734 A 16 16 0 0 1 254.73047 286.68359 A 16 16 0 0 1 254.4082 286.58203 A 16 16 0 0 1 254.08984 286.47461 A 16 16 0 0 1 253.77344 286.35938 A 16 16 0 0 1 253.46094 286.23828 A 16 16 0 0 1 253.14844 286.11133 A 16 16 0 0 1 252.83984 285.97852 A 16 16 0 0 1 252.53516 285.83789 A 16 16 0 0 1 252.23242 285.68945 A 16 16 0 0 1 251.93359 285.53711 A 16 16 0 0 1 251.63672 285.37695 A 16 16 0 0 1 251.34375 285.21094 A 16 16 0 0 1 251.05469 285.03906 A 16 16 0 0 1 250.76953 284.86133 A 16 16 0 0 1 250.48828 284.67773 A 16 16 0 0 1 250.20898 284.48828 A 16 16 0 0 1 249.93555 284.29297 A 16 16 0 0 1 249.66602 284.0918 A 16 16 0 0 1 249.40039 283.88477 A 16 16 0 0 1 249.14062 283.67383 A 16 16 0 0 1 248.88477 283.45508 A 16 16 0 0 1 248.63281 283.23242 A 16 16 0 0 1 248.38477 283.00391 A 16 16 0 0 1 248.14258 282.76953 A 16 16 0 0 1 247.90625 282.53125 A 16 16 0 0 1 247.67383 282.28906 A 16 16 0 0 1 247.44727 282.03906 A 16 16 0 0 1 247.22656 281.78711 A 16 16 0 0 1 247.00977 281.5293 A 16 16 0 0 1 246.79883 281.26758 A 16 16 0 0 1 246.59375 281 A 16 16 0 0 1 246.39453 280.73047 A 16 16 0 0 1 246.19922 280.45508 A 16 16 0 0 1 246.01172 280.17578 A 16 16 0 0 1 245.83008 279.89258 A 16 16 0 0 1 245.6543 279.60742 A 16 16 0 0 1 245.48438 279.31641 A 16 16 0 0 1 245.32031 279.02344 A 16 16 0 0 1 245.16211 278.72656 A 16 16 0 0 1 245.00977 278.42578 A 16 16 0 0 1 244.86523 278.12305 A 16 16 0 0 1 244.72656 277.81641 A 16 16 0 0 1 244.59375 277.50586 A 16 16 0 0 1 244.46875 277.19531 A 16 16 0 0 1 244.34961 276.88086 A 16 16 0 0 1 244.23633 276.5625 A 16 16 0 0 1 244.13086 276.24414 A 16 16 0 0 1 244.03125 275.92188 A 16 16 0 0 1 243.93945 275.59961 A 16 16 0 0 1 243.85352 275.27344 A 16 16 0 0 1 243.77539 274.94727 A 16 16 0 0 1 243.70312 274.61719 A 16 16 0 0 1 243.63867 274.28711 A 16 16 0 0 1 243.58203 273.95703 A 16 16 0 0 1 243.53125 273.62305 A 16 16 0 0 1 243.48633 273.29102 A 16 16 0 0 1 243.44922 272.95703 A 16 16 0 0 1 243.41992 272.62109 A 16 16 0 0 1 243.39648 272.28516 A 16 16 0 0 1 243.38086 271.94922 A 16 16 0 0 1 243.37305 271.61328 A 16 16 0 0 1 243.37109 271.37109 L 243.37109 142.66992 A 83.994247 83.994247 0 0 1 291.70312 127.37109 z M 157.80859 171.03516 A 83.15036 83.15036 0 0 1 210.50586 189.86719 A 83.994247 83.994247 0 0 1 211.37109 186.83203 L 211.37109 271.37109 A 16 16 0 0 1 211.36719 271.70703 A 16 16 0 0 1 211.35742 272.04297 A 16 16 0 0 1 211.33984 272.37891 A 16 16 0 0 1 211.31445 272.71484 A 16 16 0 0 1 211.2832 273.04883 A 16 16 0 0 1 211.24414 273.38477 A 16 16 0 0 1 211.19727 273.7168 A 16 16 0 0 1 211.14453 274.04883 A 16 16 0 0 1 211.08594 274.38086 A 16 16 0 0 1 211.01953 274.70898 A 16 16 0 0 1 210.94531 275.03906 A 16 16 0 0 1 210.86523 275.36523 A 16 16 0 0 1 210.77734 275.68945 A 16 16 0 0 1 210.68359 276.01172 A 16 16 0 0 1 210.58203 276.33398 A 16 16 0 0 1 210.47461 276.65234 A 16 16 0 0 1 210.35938 276.96875 A 16 16 0 0 1 210.23828 277.28125 A 16 16 0 0 1 210.11133 277.59375 A 16 16 0 0 1 209.97852 277.90234 A 16 16 0 0 1 209.83789 278.20703 A 16 16 0 0 1 209.68945 278.50977 A 16 16 0 0 1 209.53711 278.80859 A 16 16 0 0 1 209.37695 279.10547 A 16 16 0 0 1 209.21094 279.39844 A 16 16 0 0 1 209.03906 279.6875 A 16 16 0 0 1 208.86133 279.97266 A 16 16 0 0 1 208.67773 280.25391 A 16 16 0 0 1 208.48828 280.5332 A 16 16 0 0 1 208.29297 280.80664 A 16 16 0 0 1 208.0918 281.07617 A 16 16 0 0 1 207.88477 281.3418 A 16 16 0 0 1 207.67383 281.60156 A 16 16 0 0 1 207.45508 281.85742 A 16 16 0 0 1 207.23242 282.10938 A 16 16 0 0 1 207.00391 282.35742 A 16 16 0 0 1 206.76953 282.59961 A 16 16 0 0 1 206.53125 282.83594 A 16 16 0 0 1 206.28906 283.06836 A 16 16 0 0 1 206.03906 283.29492 A 16 16 0 0 1 205.78711 283.51562 A 16 16 0 0 1 205.5293 283.73242 A 16 16 0 0 1 205.26758 283.94336 A 16 16 0 0 1 205 284.14844 A 16 16 0 0 1 204.73047 284.34766 A 16 16 0 0 1 204.45508 284.54297 A 16 16 0 0 1 204.17578 284.73047 A 16 16 0 0 1 203.89258 284.91211 A 16 16 0 0 1 203.60742 285.08789 A 16 16 0 0 1 203.31641 285.25781 A 16 16 0 0 1 203.02344 285.42188 A 16 16 0 0 1 202.72656 285.58008 A 16 16 0 0 1 202.42578 285.73242 A 16 16 0 0 1 202.12305 285.87695 A 16 16 0 0 1 201.81641 286.01562 A 16 16 0 0 1 201.50586 286.14844 A 16 16 0 0 1 201.19531 286.27344 A 16 16 0 0 1 200.88086 286.39258 A 16 16 0 0 1 200.5625 286.50586 A 16 16 0 0 1 200.24414 286.61133 A 16 16 0 0 1 199.92188 286.71094 A 16 16 0 0 1 199.59961 286.80273 A 16 16 0 0 1 199.27344 286.88867 A 16 16 0 0 1 198.94727 286.9668 A 16 16 0 0 1 198.61719 287.03906 A 16 16 0 0 1 198.28711 287.10352 A 16 16 0 0 1 197.95703 287.16016 A 16 16 0 0 1 197.62305 287.21094 A 16 16 0 0 1 197.29102 287.25586 A 16 16 0 0 1 196.95703 287.29297 A 16 16 0 0 1 196.62109 287.32227 A 16 16 0 0 1 196.28516 287.3457 A 16 16 0 0 1 195.94922 287.36133 A 16 16 0 0 1 195.61328 287.36914 A 16 16 0 0 1 195.37109 287.37109 L 163.37109 287.37109 A 16 16 0 0 1 163.03516 287.36719 A 16 16 0 0 1 162.69922 287.35742 A 16 16 0 0 1 162.36328 287.33984 A 16 16 0 0 1 162.02734 287.31445 A 16 16 0 0 1 161.69336 287.2832 A 16 16 0 0 1 161.35742 287.24414 A 16 16 0 0 1 161.02539 287.19727 A 16 16 0 0 1 160.69336 287.14453 A 16 16 0 0 1 160.36133 287.08594 A 16 16 0 0 1 160.03125 287.01953 A 16 16 0 0 1 159.70312 286.94531 A 16 16 0 0 1 159.37695 286.86523 A 16 16 0 0 1 159.05273 286.77734 A 16 16 0 0 1 158.73047 286.68359 A 16 16 0 0 1 158.4082 286.58203 A 16 16 0 0 1 158.08984 286.47461 A 16 16 0 0 1 157.77344 286.35938 A 16 16 0 0 1 157.46094 286.23828 A 16 16 0 0 1 157.14844 286.11133 A 16 16 0 0 1 156.83984 285.97852 A 16 16 0 0 1 156.53516 285.83789 A 16 16 0 0 1 156.23242 285.68945 A 16 16 0 0 1 155.93359 285.53711 A 16 16 0 0 1 155.63672 285.37695 A 16 16 0 0 1 155.34375 285.21094 A 16 16 0 0 1 155.05469 285.03906 A 16 16 0 0 1 154.76953 284.86133 A 16 16 0 0 1 154.48828 284.67773 A 16 16 0 0 1 154.20898 284.48828 A 16 16 0 0 1 153.93555 284.29297 A 16 16 0 0 1 153.66602 284.0918 A 16 16 0 0 1 153.40039 283.88477 A 16 16 0 0 1 153.14062 283.67383 A 16 16 0 0 1 152.88477 283.45508 A 16 16 0 0 1 152.63281 283.23242 A 16 16 0 0 1 152.38477 283.00391 A 16 16 0 0 1 152.14258 282.76953 A 16 16 0 0 1 151.90625 282.53125 A 16 16 0 0 1 151.67383 282.28906 A 16 16 0 0 1 151.44727 282.03906 A 16 16 0 0 1 151.22656 281.78711 A 16 16 0 0 1 151.00977 281.5293 A 16 16 0 0 1 150.79883 281.26758 A 16 16 0 0 1 150.59375 281 A 16 16 0 0 1 150.39453 280.73047 A 16 16 0 0 1 150.19922 280.45508 A 16 16 0 0 1 150.01172 280.17578 A 16 16 0 0 1 149.83008 279.89258 A 16 16 0 0 1 149.6543 279.60742 A 16 16 0 0 1 149.48438 279.31641 A 16 16 0 0 1 149.32031 279.02344 A 16 16 0 0 1 149.16211 278.72656 A 16 16 0 0 1 149.00977 278.42578 A 16 16 0 0 1 148.86523 278.12305 A 16 16 0 0 1 148.72656 277.81641 A 16 16 0 0 1 148.59375 277.50586 A 16 16 0 0 1 148.46875 277.19531 A 16 16 0 0 1 148.34961 276.88086 A 16 16 0 0 1 148.23633 276.5625 A 16 16 0 0 1 148.13086 276.24414 A 16 16 0 0 1 148.03125 275.92188 A 16 16 0 0 1 147.93945 275.59961 A 16 16 0 0 1 147.85352 275.27344 A 16 16 0 0 1 147.77539 274.94727 A 16 16 0 0 1 147.70312 274.61719 A 16 16 0 0 1 147.63867 274.28711 A 16 16 0 0 1 147.58203 273.95703 A 16 16 0 0 1 147.53125 273.62305 A 16 16 0 0 1 147.48633 273.29102 A 16 16 0 0 1 147.44922 272.95703 A 16 16 0 0 1 147.41992 272.62109 A 16 16 0 0 1 147.39648 272.28516 A 16 16 0 0 1 147.38086 271.94922 A 16 16 0 0 1 147.37305 271.61328 A 16 16 0 0 1 147.37109 271.37109 L 147.37109 171.69336 A 83.15036 83.15036 0 0 1 157.80859 171.03516 z M 355.10938 255.37109 A 15.86 15.86 0 0 1 355.2207 255.37109 L 467.37109 255.37109 A 64 64 0 0 1 468.04297 255.375 A 64 64 0 0 1 468.7168 255.38477 A 64 64 0 0 1 469.38867 255.40234 A 64 64 0 0 1 470.06055 255.42773 A 64 64 0 0 1 470.73242 255.45898 A 64 64 0 0 1 471.4043 255.49805 A 64 64 0 0 1 472.07617 255.54492 A 64 64 0 0 1 472.74609 255.59766 A 64 64 0 0 1 473.41602 255.6582 A 64 64 0 0 1 474.08594 255.72461 A 64 64 0 0 1 474.75391 255.79883 A 64 64 0 0 1 475.42188 255.87891 A 64 64 0 0 1 476.08984 255.9668 A 64 64 0 0 1 476.75586 256.0625 A 64 64 0 0 1 477.41992 256.16406 A 64 64 0 0 1 478.08398 256.27344 A 64 64 0 0 1 478.74609 256.39062 A 64 64 0 0 1 479.4082 256.51367 A 64 64 0 0 1 480.06836 256.64258 A 64 64 0 0 1 480.72656 256.7793 A 64 64 0 0 1 481.38281 256.92383 A 64 64 0 0 1 482.03906 257.07422 A 64 64 0 0 1 482.69336 257.23242 A 64 64 0 0 1 483.3457 257.39648 A 64 64 0 0 1 483.99609 257.56836 A 64 64 0 0 1 484.64453 257.74609 A 64 64 0 0 1 485.29102 257.93164 A 64 64 0 0 1 485.93555 258.12305 A 64 64 0 0 1 486.58008 258.32227 A 64 64 0 0 1 487.2207 258.52734 A 64 64 0 0 1 487.85742 258.73828 A 64 64 0 0 1 488.49414 258.95703 A 64 64 0 0 1 489.12891 259.18359 A 64 64 0 0 1 489.75977 259.41406 A 64 64 0 0 1 490.38867 259.6543 A 64 64 0 0 1 491.01562 259.89844 A 64 64 0 0 1 491.63867 260.15039 A 64 64 0 0 1 492.25977 260.4082 A 64 64 0 0 1 492.87891 260.67383 A 64 64 0 0 1 493.49414 260.94531 A 64 64 0 0 1 494.10742 261.22266 A 64 64 0 0 1 494.7168 261.50781 A 64 64 0 0 1 495.32227 261.79688 A 64 64 0 0 1 495.92578 262.0957 A 64 64 0 0 1 496.52734 262.39844 A 64 64 0 0 1 497.125 262.70703 A 64 64 0 0 1 497.71875 263.02344 A 64 64 0 0 1 498.30859 263.3457 A 64 64 0 0 1 498.89648 263.67383 A 64 64 0 0 1 499.48047 264.00781 A 64 64 0 0 1 500.06055 264.34961 A 64 64 0 0 1 500.63672 264.69531 A 64 64 0 0 1 501.20898 265.04883 A 64 64 0 0 1 501.7793 265.40625 A 64 64 0 0 1 502.34375 265.77148 A 64 64 0 0 1 502.9043 266.14258 A 64 64 0 0 1 503.46289 266.51758 A 64 64 0 0 1 504.01562 266.90039 A 64 64 0 0 1 504.56641 267.28906 A 64 64 0 0 1 505.11133 267.68359 A 64 64 0 0 1 505.65234 268.08203 A 64 64 0 0 1 506.18945 268.48828 A 64 64 0 0 1 506.72266 268.89844 A 64 64 0 0 1 507.25 269.31445 A 64 64 0 0 1 507.77344 269.73633 A 64 64 0 0 1 508.29297 270.16406 A 64 64 0 0 1 508.80859 270.59766 A 64 64 0 0 1 509.31836 271.03516 A 64 64 0 0 1 509.82422 271.47852 A 64 64 0 0 1 510.32617 271.92773 A 64 64 0 0 1 510.82227 272.38086 A 64 64 0 0 1 511.31445 272.8418 A 64 64 0 0 1 511.80078 273.30469 A 64 64 0 0 1 512.28125 273.77539 A 64 64 0 0 1 512.75977 274.25 A 64 64 0 0 1 513.23047 274.72852 A 64 64 0 0 1 513.69727 275.21289 A 64 64 0 0 1 514.1582 275.70312 A 64 64 0 0 1 514.61523 276.19727 A 64 64 0 0 1 515.06641 276.69531 A 64 64 0 0 1 515.51172 277.19922 A 64 64 0 0 1 515.95312 277.70898 A 64 64 0 0 1 516.38867 278.2207 A 64 64 0 0 1 516.81836 278.73828 A 64 64 0 0 1 517.24219 279.25977 A 64 64 0 0 1 517.66211 279.78711 A 64 64 0 0 1 518.07422 280.31836 A 64 64 0 0 1 518.48242 280.85352 A 64 64 0 0 1 518.88477 281.39258 A 64 64 0 0 1 519.28125 281.93555 A 64 64 0 0 1 519.67188 282.48438 A 64 64 0 0 1 520.05664 283.03516 A 64 64 0 0 1 520.43555 283.5918 A 64 64 0 0 1 520.80859 284.15039 A 64 64 0 0 1 521.17578 284.71484 A 64 64 0 0 1 521.53711 285.28125 A 64 64 0 0 1 521.89258 285.85352 A 64 64 0 0 1 522.24219 286.42773 A 64 64 0 0 1 522.58398 287.00586 A 64 64 0 0 1 522.92188 287.58789 A 64 64 0 0 1 523.25195 288.17383 A 64 64 0 0 1 523.57812 288.76367 A 64 64 0 0 1 523.89648 289.35547 A 64 64 0 0 1 524.20898 289.95117 A 64 64 0 0 1 524.51562 290.55078 A 64 64 0 0 1 524.81445 291.15234 A 64 64 0 0 1 525.10742 291.75781 A 64 64 0 0 1 525.39453 292.36719 A 64 64 0 0 1 525.67578 292.97852 A 64 64 0 0 1 525.94922 293.5918 A 64 64 0 0 1 526.2168 294.20898 A 64 64 0 0 1 526.47852 294.83008 A 64 64 0 0 1 526.73438 295.45312 A 64 64 0 0 1 526.98242 296.07812 A 64 64 0 0 1 527.22266 296.70508 A 64 64 0 0 1 527.45898 297.33594 A 64 64 0 0 1 527.68555 297.96875 A 64 64 0 0 1 527.9082 298.60352 A 64 64 0 0 1 528.12305 299.24023 A 64 64 0 0 1 528.33203 299.88086 A 64 64 0 0 1 528.5332 300.52344 A 64 64 0 0 1 528.72656 301.16602 A 64 64 0 0 1 528.91602 301.8125 A 64 64 0 0 1 529.0957 302.46094 A 64 64 0 0 1 529.27148 303.10938 A 64 64 0 0 1 529.4375 303.76172 A 64 64 0 0 1 529.59961 304.41406 A 64 64 0 0 1 529.75195 305.07031 A 64 64 0 0 1 529.90039 305.72656 A 64 64 0 0 1 530.03906 306.38477 A 64 64 0 0 1 530.17188 307.04297 A 64 64 0 0 1 530.29883 307.70508 A 64 64 0 0 1 530.41797 308.36719 A 64 64 0 0 1 530.5293 309.0293 A 64 64 0 0 1 530.63477 309.69336 A 64 64 0 0 1 530.73438 310.35938 A 64 64 0 0 1 530.82422 311.02539 A 64 64 0 0 1 530.9082 311.69336 A 64 64 0 0 1 530.98633 312.36133 A 64 64 0 0 1 531.05664 313.03125 A 64 64 0 0 1 531.11914 313.70117 A 64 64 0 0 1 531.17578 314.37109 A 64 64 0 0 1 531.22461 315.04102 A 64 64 0 0 1 531.26562 315.71289 A 64 64 0 0 1 531.30078 316.38477 A 64 64 0 0 1 531.33008 317.05664 A 64 64 0 0 1 531.34961 317.73047 A 64 64 0 0 1 531.36328 318.40234 A 64 64 0 0 1 531.37109 319.07422 A 64 64 0 0 1 531.37109 319.37109 L 531.37109 407.5918 A 96 96 0 0 1 531.36719 408.41602 A 96 96 0 0 1 531.35742 409.24023 A 96 96 0 0 1 531.33984 410.0625 A 96 96 0 0 1 531.31445 410.88672 A 96 96 0 0 1 531.2832 411.71094 A 96 96 0 0 1 531.24414 412.5332 A 96 96 0 0 1 531.20508 413.24414 A 138.03043 138.03043 0 0 1 413.05859 479.9043 A 138.03043 138.03043 0 0 1 354.67969 466.95117 A 137.93895 137.93895 0 0 1 265.17383 499.93359 A 137.93895 137.93895 0 0 1 161.73047 453.24414 A 128 128 0 0 1 161.29492 452.39844 A 128 128 0 0 1 160.86719 451.54883 A 128 128 0 0 1 160.44531 450.69531 A 128 128 0 0 1 160.0293 449.83984 A 128 128 0 0 1 159.62109 448.98047 A 128 128 0 0 1 159.2168 448.11914 A 128 128 0 0 1 158.82031 447.25391 A 128 128 0 0 1 158.43164 446.38672 A 128 128 0 0 1 158.04688 445.51562 A 128 128 0 0 1 157.66992 444.64258 A 128 128 0 0 1 157.29883 443.76758 A 128 128 0 0 1 156.93555 442.88867 A 128 128 0 0 1 156.57812 442.00586 A 128 128 0 0 1 156.22656 441.12109 A 128 128 0 0 1 155.88281 440.23438 A 128 128 0 0 1 155.54492 439.3457 A 128 128 0 0 1 155.21289 438.45312 A 128 128 0 0 1 154.88867 437.56055 A 128 128 0 0 1 154.57031 436.66211 A 128 128 0 0 1 154.25977 435.76367 A 128 128 0 0 1 153.95508 434.86328 A 128 128 0 0 1 153.6582 433.95898 A 128 128 0 0 1 153.36523 433.05273 A 128 128 0 0 1 153.08203 432.14453 A 128 128 0 0 1 152.80469 431.23633 A 128 128 0 0 1 152.5332 430.32422 A 128 128 0 0 1 152.26953 429.41016 A 128 128 0 0 1 152.01172 428.49414 A 128 128 0 0 1 151.76172 427.57617 A 128 128 0 0 1 151.51758 426.65625 A 128 128 0 0 1 151.28125 425.73438 A 128 128 0 0 1 151.05078 424.8125 A 128 128 0 0 1 150.82812 423.88672 A 128 128 0 0 1 150.61133 422.96094 A 128 128 0 0 1 150.40234 422.03125 A 128 128 0 0 1 150.20117 421.10352 A 128 128 0 0 1 150.00586 420.17188 A 128 128 0 0 1 149.81641 419.23828 A 128 128 0 0 1 149.63477 418.30469 A 128 128 0 0 1 149.46094 417.36914 A 128 128 0 0 1 149.29297 416.43359 A 128 128 0 0 1 149.13086 415.49609 A 128 128 0 0 1 148.97852 414.55664 A 128 128 0 0 1 148.83203 413.61719 A 128 128 0 0 1 148.69141 412.67578 A 128 128 0 0 1 148.55859 411.73438 A 128 128 0 0 1 148.43359 410.79102 A 128 128 0 0 1 148.31445 409.84766 A 128 128 0 0 1 148.20312 408.90234 A 128 128 0 0 1 148.09766 407.95703 A 128 128 0 0 1 148 407.00977 A 128 128 0 0 1 147.9082 406.0625 A 128 128 0 0 1 147.82617 405.11523 A 128 128 0 0 1 147.74805 404.16797 A 128 128 0 0 1 147.67969 403.21875 A 128 128 0 0 1 147.61719 402.26953 A 128 128 0 0 1 147.5625 401.32031 A 128 128 0 0 1 147.51367 400.36914 A 128 128 0 0 1 147.47266 399.41797 A 128 128 0 0 1 147.4375 398.46875 A 128 128 0 0 1 147.41016 397.51758 A 128 128 0 0 1 147.39062 396.56641 A 128 128 0 0 1 147.37695 395.61523 A 128 128 0 0 1 147.37109 394.66406 A 128 128 0 0 1 147.37109 394.37109 L 147.37109 316.42188 A 47.26 47.26 0 0 0 147.91406 316.61914 A 47.26 47.26 0 0 0 148.45898 316.81055 A 47.26 47.26 0 0 0 149.00781 316.99609 A 47.26 47.26 0 0 0 149.55859 317.17383 A 47.26 47.26 0 0 0 150.10938 317.34375 A 47.26 47.26 0 0 0 150.66406 317.50781 A 47.26 47.26 0 0 0 151.2207 317.66602 A 47.26 47.26 0 0 0 151.7793 317.81641 A 47.26 47.26 0 0 0 152.33789 317.95898 A 47.26 47.26 0 0 0 152.90039 318.0957 A 47.26 47.26 0 0 0 153.46289 318.22656 A 47.26 47.26 0 0 0 154.0293 318.34961 A 47.26 47.26 0 0 0 154.59375 318.4668 A 47.26 47.26 0 0 0 155.16211 318.57422 A 47.26 47.26 0 0 0 155.73047 318.67773 A 47.26 47.26 0 0 0 156.30078 318.77344 A 47.26 47.26 0 0 0 156.87305 318.86133 A 47.26 47.26 0 0 0 157.44531 318.94336 A 47.26 47.26 0 0 0 158.01758 319.01758 A 47.26 47.26 0 0 0 158.5918 319.08398 A 47.26 47.26 0 0 0 159.16797 319.14453 A 47.26 47.26 0 0 0 159.74219 319.19727 A 47.26 47.26 0 0 0 160.31836 319.24414 A 47.26 47.26 0 0 0 160.89648 319.2832 A 47.26 47.26 0 0 0 161.47266 319.31445 A 47.26 47.26 0 0 0 162.05078 319.33984 A 47.26 47.26 0 0 0 162.62891 319.35742 A 47.26 47.26 0 0 0 163.20703 319.36914 A 47.26 47.26 0 0 0 163.37109 319.37109 L 195.37109 319.37109 A 47.65 47.65 0 0 0 195.95117 319.36523 A 47.65 47.65 0 0 0 196.53125 319.35352 A 47.65 47.65 0 0 0 197.11133 319.33398 A 47.65 47.65 0 0 0 197.69141 319.30664 A 47.65 47.65 0 0 0 198.27148 319.27344 A 47.65 47.65 0 0 0 198.84961 319.23242 A 47.65 47.65 0 0 0 199.42969 319.18359 A 47.65 47.65 0 0 0 200.00586 319.12891 A 47.65 47.65 0 0 0 200.58398 319.06836 A 47.65 47.65 0 0 0 201.16016 318.99805 A 47.65 47.65 0 0 0 201.73633 318.92188 A 47.65 47.65 0 0 0 202.31055 318.83984 A 47.65 47.65 0 0 0 202.88281 318.75 A 47.65 47.65 0 0 0 203.45508 318.65234 A 47.65 47.65 0 0 0 204.02734 318.54883 A 47.65 47.65 0 0 0 204.59766 318.4375 A 47.65 47.65 0 0 0 205.16602 318.32031 A 47.65 47.65 0 0 0 205.73242 318.19531 A 47.65 47.65 0 0 0 206.29688 318.06445 A 47.65 47.65 0 0 0 206.86133 317.92578 A 47.65 47.65 0 0 0 207.42383 317.7793 A 47.65 47.65 0 0 0 207.98242 317.62695 A 47.65 47.65 0 0 0 208.54102 317.46875 A 47.65 47.65 0 0 0 209.09766 317.30273 A 47.65 47.65 0 0 0 209.65234 317.13086 A 47.65 47.65 0 0 0 210.20312 316.95117 A 47.65 47.65 0 0 0 210.75391 316.76562 A 47.65 47.65 0 0 0 211.30078 316.57227 A 47.65 47.65 0 0 0 211.8457 316.37305 A 47.65 47.65 0 0 0 212.38867 316.16602 A 47.65 47.65 0 0 0 212.92969 315.95508 A 47.65 47.65 0 0 0 213.4668 315.73438 A 47.65 47.65 0 0 0 214.00195 315.50977 A 47.65 47.65 0 0 0 214.5332 315.27734 A 47.65 47.65 0 0 0 215.0625 315.03906 A 47.65 47.65 0 0 0 215.58984 314.79297 A 47.65 47.65 0 0 0 216.11133 314.54297 A 47.65 47.65 0 0 0 216.63281 314.28516 A 47.65 47.65 0 0 0 217.14844 314.01953 A 47.65 47.65 0 0 0 217.66211 313.75 A 47.65 47.65 0 0 0 218.17383 313.47266 A 47.65 47.65 0 0 0 218.67969 313.19141 A 47.65 47.65 0 0 0 219.18359 312.90234 A 47.65 47.65 0 0 0 219.68359 312.60547 A 47.65 47.65 0 0 0 220.17969 312.30469 A 47.65 47.65 0 0 0 220.67188 311.99805 A 47.65 47.65 0 0 0 221.16016 311.68555 A 47.65 47.65 0 0 0 221.64648 311.36523 A 47.65 47.65 0 0 0 222.12695 311.04102 A 47.65 47.65 0 0 0 222.60352 310.71094 A 47.65 47.65 0 0 0 223.07617 310.37305 A 47.65 47.65 0 0 0 223.54492 310.03125 A 47.65 47.65 0 0 0 224.00977 309.68359 A 47.65 47.65 0 0 0 224.4707 309.33008 A 47.65 47.65 0 0 0 224.92578 308.9707 A 47.65 47.65 0 0 0 225.37695 308.60547 A 47.65 47.65 0 0 0 225.82422 308.23438 A 47.65 47.65 0 0 0 226.26758 307.85938 A 47.65 47.65 0 0 0 226.70508 307.47852 A 47.65 47.65 0 0 0 227.13867 307.0918 A 47.65 47.65 0 0 0 227.37109 306.88086 A 47.65 47.65 0 0 0 227.80273 307.26953 A 47.65 47.65 0 0 0 228.23633 307.6543 A 47.65 47.65 0 0 0 228.67773 308.0332 A 47.65 47.65 0 0 0 229.12109 308.40625 A 47.65 47.65 0 0 0 229.57031 308.77344 A 47.65 47.65 0 0 0 230.02539 309.13477 A 47.65 47.65 0 0 0 230.48242 309.49219 A 47.65 47.65 0 0 0 230.94531 309.84375 A 47.65 47.65 0 0 0 231.41211 310.18945 A 47.65 47.65 0 0 0 231.88281 310.5293 A 47.65 47.65 0 0 0 232.35742 310.86328 A 47.65 47.65 0 0 0 232.83594 311.19141 A 47.65 47.65 0 0 0 233.31836 311.51367 A 47.65 47.65 0 0 0 233.80469 311.83008 A 47.65 47.65 0 0 0 234.29492 312.13867 A 47.65 47.65 0 0 0 234.78906 312.44336 A 47.65 47.65 0 0 0 235.28711 312.74219 A 47.65 47.65 0 0 0 235.78906 313.03516 A 47.65 47.65 0 0 0 236.29492 313.32031 A 47.65 47.65 0 0 0 236.80273 313.60156 A 47.65 47.65 0 0 0 237.31445 313.875 A 47.65 47.65 0 0 0 237.83008 314.14258 A 47.65 47.65 0 0 0 238.34766 314.40234 A 47.65 47.65 0 0 0 238.86914 314.6582 A 47.65 47.65 0 0 0 239.39453 314.90625 A 47.65 47.65 0 0 0 239.92188 315.14844 A 47.65 47.65 0 0 0 240.45117 315.38477 A 47.65 47.65 0 0 0 240.98438 315.61328 A 47.65 47.65 0 0 0 241.52148 315.83594 A 47.65 47.65 0 0 0 242.06055 316.05273 A 47.65 47.65 0 0 0 242.60156 316.26172 A 47.65 47.65 0 0 0 243.14453 316.46484 A 47.65 47.65 0 0 0 243.69141 316.66211 A 47.65 47.65 0 0 0 244.24023 316.85156 A 47.65 47.65 0 0 0 244.79102 317.0332 A 47.65 47.65 0 0 0 245.34375 317.21094 A 47.65 47.65 0 0 0 245.89844 317.37891 A 47.65 47.65 0 0 0 246.45703 317.54297 A 47.65 47.65 0 0 0 247.01562 317.69727 A 47.65 47.65 0 0 0 247.57617 317.84766 A 47.65 47.65 0 0 0 248.13867 317.99023 A 47.65 47.65 0 0 0 248.70312 318.125 A 47.65 47.65 0 0 0 249.26953 318.25391 A 47.65 47.65 0 0 0 249.83789 318.375 A 47.65 47.65 0 0 0 250.40625 318.49023 A 47.65 47.65 0 0 0 250.97656 318.59766 A 47.65 47.65 0 0 0 251.54883 318.69727 A 47.65 47.65 0 0 0 252.12109 318.79102 A 47.65 47.65 0 0 0 252.69531 318.87891 A 47.65 47.65 0 0 0 253.26953 318.95898 A 47.65 47.65 0 0 0 253.8457 319.03125 A 47.65 47.65 0 0 0 254.42188 319.0957 A 47.65 47.65 0 0 0 255 319.15625 A 47.65 47.65 0 0 0 255.57812 319.20703 A 47.65 47.65 0 0 0 256.15625 319.25195 A 47.65 47.65 0 0 0 256.73633 319.28906 A 47.65 47.65 0 0 0 257.31641 319.32031 A 47.65 47.65 0 0 0 257.89648 319.34375 A 47.65 47.65 0 0 0 258.47656 319.35938 A 47.65 47.65 0 0 0 259.05664 319.36914 A 47.65 47.65 0 0 0 259.37109 319.37109 L 291.37109 319.37109 A 47.4 47.4 0 0 0 291.94922 319.36328 A 47.4 47.4 0 0 0 292.5293 319.34961 A 47.4 47.4 0 0 0 293.10742 319.32617 A 47.4 47.4 0 0 0 293.68555 319.29883 A 47.4 47.4 0 0 0 294.26367 319.26172 A 47.4 47.4 0 0 0 294.83984 319.21875 A 47.4 47.4 0 0 0 295.41797 319.16992 A 47.4 47.4 0 0 0 295.99414 319.11328 A 47.4 47.4 0 0 0 296.56836 319.04883 A 47.4 47.4 0 0 0 297.14258 318.97852 A 47.4 47.4 0 0 0 297.7168 318.90039 A 47.4 47.4 0 0 0 298.28906 318.81445 A 47.4 47.4 0 0 0 298.86133 318.72266 A 47.4 47.4 0 0 0 299.43164 318.62305 A 47.4 47.4 0 0 0 300 318.51758 A 47.4 47.4 0 0 0 300.56836 318.4043 A 47.4 47.4 0 0 0 301.13477 318.28516 A 47.4 47.4 0 0 0 301.69922 318.1582 A 47.4 47.4 0 0 0 302.26367 318.02344 A 47.4 47.4 0 0 0 302.82422 317.88281 A 47.4 47.4 0 0 0 303.38477 317.73633 A 47.4 47.4 0 0 0 303.94336 317.58203 A 47.4 47.4 0 0 0 304.49805 317.42188 A 47.4 47.4 0 0 0 305.05273 317.25391 A 47.4 47.4 0 0 0 305.60547 317.07812 A 47.4 47.4 0 0 0 306.1543 316.89844 A 47.4 47.4 0 0 0 306.70312 316.70898 A 47.4 47.4 0 0 0 307.24805 316.51562 A 47.4 47.4 0 0 0 307.79102 316.31445 A 47.4 47.4 0 0 0 308.33008 316.10547 A 47.4 47.4 0 0 0 308.86914 315.89062 A 47.4 47.4 0 0 0 309.4043 315.66992 A 47.4 47.4 0 0 0 309.93555 315.44336 A 47.4 47.4 0 0 0 310.46484 315.20898 A 47.4 47.4 0 0 0 310.99219 314.96875 A 47.4 47.4 0 0 0 311.51562 314.7207 A 47.4 47.4 0 0 0 312.03711 314.46875 A 47.4 47.4 0 0 0 312.55469 314.20898 A 47.4 47.4 0 0 0 313.06836 313.94336 A 47.4 47.4 0 0 0 313.24023 313.85156 A 64.34 64.34 0 0 0 313.52539 314.46289 A 64.34 64.34 0 0 0 313.81641 315.07227 A 64.34 64.34 0 0 0 314.11328 315.67773 A 64.34 64.34 0 0 0 314.41602 316.2793 A 64.34 64.34 0 0 0 314.72656 316.87891 A 64.34 64.34 0 0 0 315.04297 317.47461 A 64.34 64.34 0 0 0 315.36523 318.06641 A 64.34 64.34 0 0 0 315.69336 318.65625 A 64.34 64.34 0 0 0 316.02734 319.24219 A 64.34 64.34 0 0 0 316.36914 319.82422 A 64.34 64.34 0 0 0 316.71484 320.40234 A 64.34 64.34 0 0 0 317.06836 320.97656 A 64.34 64.34 0 0 0 317.42773 321.54883 A 64.34 64.34 0 0 0 317.79297 322.11523 A 64.34 64.34 0 0 0 318.16406 322.67773 A 64.34 64.34 0 0 0 318.54102 323.23828 A 64.34 64.34 0 0 0 318.92188 323.79297 A 64.34 64.34 0 0 0 319.31055 324.3457 A 64.34 64.34 0 0 0 319.70508 324.89258 A 64.34 64.34 0 0 0 320.10547 325.43555 A 64.34 64.34 0 0 0 320.51172 325.97461 A 64.34 64.34 0 0 0 320.92188 326.50977 A 64.34 64.34 0 0 0 321.33789 327.03906 A 64.34 64.34 0 0 0 321.76172 327.56641 A 64.34 64.34 0 0 0 322.18945 328.08789 A 64.34 64.34 0 0 0 322.62109 328.60352 A 64.34 64.34 0 0 0 323.06055 329.11719 A 64.34 64.34 0 0 0 323.50391 329.625 A 64.34 64.34 0 0 0 323.95312 330.12695 A 64.34 64.34 0 0 0 324.4082 330.625 A 64.34 64.34 0 0 0 324.86719 331.11914 A 64.34 64.34 0 0 0 325.33203 331.60742 A 64.34 64.34 0 0 0 325.80273 332.0918 A 64.34 64.34 0 0 0 326.27734 332.57031 A 64.34 64.34 0 0 0 326.75781 333.04492 A 64.34 64.34 0 0 0 327.24219 333.51367 A 64.34 64.34 0 0 0 327.73242 333.97656 A 64.34 64.34 0 0 0 328.22656 334.43555 A 64.34 64.34 0 0 0 328.72656 334.88867 A 64.34 64.34 0 0 0 329.23047 335.33594 A 64.34 64.34 0 0 0 329.74023 335.7793 A 64.34 64.34 0 0 0 330.25391 336.2168 A 64.34 64.34 0 0 0 330.77148 336.64844 A 64.34 64.34 0 0 0 331.29297 337.07617 A 64.34 64.34 0 0 0 331.82031 337.49609 A 64.34 64.34 0 0 0 332.35156 337.91211 A 64.34 64.34 0 0 0 332.88672 338.32227 A 64.34 64.34 0 0 0 333.42773 338.72656 A 64.34 64.34 0 0 0 333.97266 339.125 A 64.34 64.34 0 0 0 334.51953 339.51758 A 64.34 64.34 0 0 0 335.07227 339.9043 A 64.34 64.34 0 0 0 335.62891 340.28516 A 64.34 64.34 0 0 0 336.18945 340.66211 A 64.34 64.34 0 0 0 336.75391 341.03125 A 64.34 64.34 0 0 0 337.32227 341.39453 A 64.34 64.34 0 0 0 337.89258 341.75195 A 64.34 64.34 0 0 0 338.46875 342.10352 A 64.34 64.34 0 0 0 339.04883 342.44922 A 64.34 64.34 0 0 0 339.63086 342.78906 A 64.34 64.34 0 0 0 340.2168 343.12109 A 64.34 64.34 0 0 0 340.80664 343.44922 A 64.34 64.34 0 0 0 341.40039 343.76953 A 64.34 64.34 0 0 0 341.99805 344.08398 A 64.34 64.34 0 0 0 342.59766 344.39258 A 64.34 64.34 0 0 0 343.19922 344.69531 A 64.34 64.34 0 0 0 343.80664 344.99219 A 64.34 64.34 0 0 0 344.41602 345.28125 A 64.34 64.34 0 0 0 345.02734 345.56445 A 64.34 64.34 0 0 0 345.64258 345.83984 A 64.34 64.34 0 0 0 346.26172 346.11133 A 64.34 64.34 0 0 0 346.88086 346.375 A 64.34 64.34 0 0 0 347.50586 346.63086 A 64.34 64.34 0 0 0 348.13086 346.88086 A 64.34 64.34 0 0 0 348.75977 347.125 A 64.34 64.34 0 0 0 349.39258 347.36328 A 64.34 64.34 0 0 0 350.02539 347.59375 A 64.34 64.34 0 0 0 350.66211 347.81836 A 64.34 64.34 0 0 0 351.30078 348.03516 A 64.34 64.34 0 0 0 351.94141 348.24609 A 64.34 64.34 0 0 0 352.11133 348.30078 C 347.83383 352.00578 343.72138 356.01265 339.71289 360.30859 C 335.7044 364.60454 331.80077 369.19007 327.93945 374.04883 C 324.07813 378.90759 320.25982 384.04015 316.42383 389.43359 C 312.58784 394.82704 308.73328 400.48086 304.80078 406.38086 L 298.49023 415.85156 A 8 8 0 0 0 298.36133 416.05078 A 8 8 0 0 0 298.23828 416.25586 A 8 8 0 0 0 298.12305 416.46289 A 8 8 0 0 0 298.01172 416.67383 A 8 8 0 0 0 297.9082 416.88672 A 8 8 0 0 0 297.81055 417.10352 A 8 8 0 0 0 297.71875 417.32422 A 8 8 0 0 0 297.63477 417.54688 A 8 8 0 0 0 297.55664 417.77148 A 8 8 0 0 0 297.48633 417.99805 A 8 8 0 0 0 297.42188 418.22656 A 8 8 0 0 0 297.36328 418.45703 A 8 8 0 0 0 297.3125 418.68945 A 8 8 0 0 0 297.26953 418.92383 A 8 8 0 0 0 297.23242 419.1582 A 8 8 0 0 0 297.20312 419.39453 A 8 8 0 0 0 297.17969 419.63086 A 8 8 0 0 0 297.16406 419.86914 A 8 8 0 0 0 297.15625 420.10547 A 8 8 0 0 0 297.1543 420.34375 A 8 8 0 0 0 297.16016 420.58203 A 8 8 0 0 0 297.17188 420.82031 A 8 8 0 0 0 297.19141 421.05664 A 8 8 0 0 0 297.21875 421.29297 A 8 8 0 0 0 297.25195 421.52734 A 8 8 0 0 0 297.29297 421.76172 A 8 8 0 0 0 297.33984 421.99609 A 8 8 0 0 0 297.39453 422.22656 A 8 8 0 0 0 297.45508 422.45703 A 8 8 0 0 0 297.52344 422.68555 A 8 8 0 0 0 297.59961 422.91016 A 8 8 0 0 0 297.67969 423.13477 A 8 8 0 0 0 297.76953 423.35547 A 8 8 0 0 0 297.86328 423.57227 A 8 8 0 0 0 297.96484 423.78906 A 8 8 0 0 0 298.07227 424 A 8 8 0 0 0 298.18555 424.20898 A 8 8 0 0 0 298.30664 424.41406 A 8 8 0 0 0 298.43164 424.61719 A 8 8 0 0 0 298.56445 424.81445 A 8 8 0 0 0 298.70117 425.00781 A 8 8 0 0 0 298.8457 425.19727 A 8 8 0 0 0 298.99414 425.38281 A 8 8 0 0 0 299.14844 425.56445 A 8 8 0 0 0 299.30859 425.74023 A 8 8 0 0 0 299.47266 425.91211 A 8 8 0 0 0 299.64258 426.07812 A 8 8 0 0 0 299.81836 426.23828 A 8 8 0 0 0 299.99805 426.39453 A 8 8 0 0 0 300.18164 426.54492 A 8 8 0 0 0 300.36914 426.69141 A 8 8 0 0 0 300.5625 426.83008 A 8 8 0 0 0 300.71094 426.93164 L 314.02148 435.81055 A 8 8 0 0 0 314.2207 435.93945 A 8 8 0 0 0 314.42578 436.0625 A 8 8 0 0 0 314.63281 436.17773 A 8 8 0 0 0 314.84375 436.28906 A 8 8 0 0 0 315.05664 436.39258 A 8 8 0 0 0 315.27344 436.49023 A 8 8 0 0 0 315.49414 436.58203 A 8 8 0 0 0 315.7168 436.66602 A 8 8 0 0 0 315.94141 436.74414 A 8 8 0 0 0 316.16797 436.81445 A 8 8 0 0 0 316.39648 436.87891 A 8 8 0 0 0 316.62695 436.9375 A 8 8 0 0 0 316.85938 436.98828 A 8 8 0 0 0 317.09375 437.03125 A 8 8 0 0 0 317.32812 437.06836 A 8 8 0 0 0 317.56445 437.09766 A 8 8 0 0 0 317.80078 437.12109 A 8 8 0 0 0 318.03906 437.13672 A 8 8 0 0 0 318.27539 437.14648 A 8 8 0 0 0 318.51367 437.14844 A 8 8 0 0 0 318.75195 437.14258 A 8 8 0 0 0 318.98828 437.12891 A 8 8 0 0 0 319.22656 437.10938 A 8 8 0 0 0 319.46289 437.08398 A 8 8 0 0 0 319.69727 437.04883 A 8 8 0 0 0 319.93164 437.00977 A 8 8 0 0 0 320.16602 436.96094 A 8 8 0 0 0 320.39648 436.90625 A 8 8 0 0 0 320.62695 436.8457 A 8 8 0 0 0 320.85352 436.77734 A 8 8 0 0 0 321.08008 436.70312 A 8 8 0 0 0 321.30273 436.62109 A 8 8 0 0 0 321.52539 436.5332 A 8 8 0 0 0 321.74219 436.4375 A 8 8 0 0 0 321.95703 436.33789 A 8 8 0 0 0 322.16992 436.23047 A 8 8 0 0 0 322.37891 436.11523 A 8 8 0 0 0 322.58398 435.99609 A 8 8 0 0 0 322.78711 435.87109 A 8 8 0 0 0 322.98438 435.73828 A 8 8 0 0 0 323.17773 435.60156 A 8 8 0 0 0 323.36719 435.45703 A 8 8 0 0 0 323.55273 435.30859 A 8 8 0 0 0 323.73438 435.1543 A 8 8 0 0 0 323.91016 434.99414 A 8 8 0 0 0 324.08203 434.83008 A 8 8 0 0 0 324.24805 434.66016 A 8 8 0 0 0 324.41016 434.48438 A 8 8 0 0 0 324.56445 434.30469 A 8 8 0 0 0 324.7168 434.12109 A 8 8 0 0 0 324.86133 433.93164 A 8 8 0 0 0 325 433.74023 A 8 8 0 0 0 325.10156 433.5918 L 331.41016 424.12109 C 335.39641 418.14109 339.19121 412.55756 342.86719 407.36133 C 346.54317 402.1651 350.10059 397.35683 353.61133 392.92383 C 357.12207 388.49082 360.58564 384.43446 364.07617 380.74414 C 367.56671 377.05382 371.08386 373.72794 374.69922 370.75977 C 376.5069 369.27568 378.339 367.88162 380.20508 366.57422 C 382.07116 365.26682 383.97145 364.04735 385.91406 362.91406 C 387.85667 361.78078 389.84164 360.73322 391.87891 359.77148 C 393.91618 358.80975 396.00619 357.93338 398.15625 357.14062 C 400.30631 356.34789 402.5159 355.64001 404.79688 355.01367 C 407.07785 354.38733 409.42935 353.84335 411.85938 353.38086 C 414.2894 352.91837 416.79929 352.53559 419.39648 352.23438 C 421.99368 351.93315 424.67844 351.71281 427.46094 351.57031 A 8.22 8.22 0 0 0 427.70117 351.55664 A 8.22 8.22 0 0 0 427.94141 351.53711 A 8.22 8.22 0 0 0 428.18164 351.50977 A 8.22 8.22 0 0 0 428.41992 351.47461 A 8.22 8.22 0 0 0 428.6582 351.43359 A 8.22 8.22 0 0 0 428.89453 351.38477 A 8.22 8.22 0 0 0 429.12891 351.33008 A 8.22 8.22 0 0 0 429.36133 351.26758 A 8.22 8.22 0 0 0 429.5918 351.19727 A 8.22 8.22 0 0 0 429.82031 351.12305 A 8.22 8.22 0 0 0 430.04688 351.03906 A 8.22 8.22 0 0 0 430.27148 350.95117 A 8.22 8.22 0 0 0 430.49219 350.85547 A 8.22 8.22 0 0 0 430.71094 350.75391 A 8.22 8.22 0 0 0 430.92773 350.64453 A 8.22 8.22 0 0 0 431.13867 350.53125 A 8.22 8.22 0 0 0 431.34766 350.41016 A 8.22 8.22 0 0 0 431.55273 350.2832 A 8.22 8.22 0 0 0 431.75391 350.15039 A 8.22 8.22 0 0 0 431.95117 350.01172 A 8.22 8.22 0 0 0 432.14453 349.86719 A 8.22 8.22 0 0 0 432.33203 349.7168 A 8.22 8.22 0 0 0 432.51758 349.56055 A 8.22 8.22 0 0 0 432.69727 349.40039 A 8.22 8.22 0 0 0 432.87109 349.23438 A 8.22 8.22 0 0 0 433.04102 349.0625 A 8.22 8.22 0 0 0 433.20508 348.88672 A 8.22 8.22 0 0 0 433.36523 348.70703 A 8.22 8.22 0 0 0 433.51953 348.52148 A 8.22 8.22 0 0 0 433.66797 348.33203 A 8.22 8.22 0 0 0 433.8125 348.13672 A 8.22 8.22 0 0 0 433.94922 347.93945 A 8.22 8.22 0 0 0 434.08008 347.73828 A 8.22 8.22 0 0 0 434.20508 347.53125 A 8.22 8.22 0 0 0 434.32422 347.32227 A 8.22 8.22 0 0 0 434.4375 347.10938 A 8.22 8.22 0 0 0 434.54492 346.89258 A 8.22 8.22 0 0 0 434.64648 346.67383 A 8.22 8.22 0 0 0 434.74023 346.45117 A 8.22 8.22 0 0 0 434.82812 346.22656 A 8.22 8.22 0 0 0 434.9082 346 A 8.22 8.22 0 0 0 434.98242 345.77148 A 8.22 8.22 0 0 0 435.04883 345.53906 A 8.22 8.22 0 0 0 435.10938 345.30664 A 8.22 8.22 0 0 0 435.16406 345.07031 A 8.22 8.22 0 0 0 435.21094 344.83398 A 8.22 8.22 0 0 0 435.25 344.59766 A 8.22 8.22 0 0 0 435.2832 344.35742 A 8.22 8.22 0 0 0 435.30859 344.11914 A 8.22 8.22 0 0 0 435.32812 343.87695 A 8.22 8.22 0 0 0 435.33984 343.63672 A 8.22 8.22 0 0 0 435.3418 343.57031 L 435.3418 327.37109 C 435.3418 326.26609 435.12198 325.21305 434.64062 324.25586 C 434.15927 323.29867 433.41624 322.43664 432.37109 321.71289 C 431.32595 320.98914 429.97847 320.40469 428.28711 320 C 426.59575 319.59531 424.56063 319.37109 422.14062 319.37109 L 386.89062 319.37109 A 47.59 47.59 0 0 1 386.31055 319.36719 A 47.59 47.59 0 0 1 385.73047 319.35547 A 47.59 47.59 0 0 1 385.15039 319.33594 A 47.59 47.59 0 0 1 384.57031 319.31055 A 47.59 47.59 0 0 1 383.99219 319.2793 A 47.59 47.59 0 0 1 383.41406 319.23828 A 47.59 47.59 0 0 1 382.83594 319.19141 A 47.59 47.59 0 0 1 382.25781 319.13867 A 47.59 47.59 0 0 1 381.67969 319.07812 A 47.59 47.59 0 0 1 381.10547 319.00977 A 47.59 47.59 0 0 1 380.5293 318.93359 A 47.59 47.59 0 0 1 379.95508 318.85352 A 47.59 47.59 0 0 1 379.38086 318.76367 A 47.59 47.59 0 0 1 378.81055 318.66797 A 47.59 47.59 0 0 1 378.23828 318.56445 A 47.59 47.59 0 0 1 377.66992 318.45508 A 47.59 47.59 0 0 1 377.10156 318.33789 A 47.59 47.59 0 0 1 376.5332 318.21484 A 47.59 47.59 0 0 1 375.96875 318.08398 A 47.59 47.59 0 0 1 375.40625 317.94727 A 47.59 47.59 0 0 1 374.84375 317.80273 A 47.59 47.59 0 0 1 374.2832 317.65234 A 47.59 47.59 0 0 1 373.72461 317.49414 A 47.59 47.59 0 0 1 373.16992 317.32812 A 47.59 47.59 0 0 1 372.61523 317.1582 A 47.59 47.59 0 0 1 372.0625 316.97852 A 47.59 47.59 0 0 1 371.51367 316.79492 A 47.59 47.59 0 0 1 370.96484 316.60156 A 47.59 47.59 0 0 1 370.41992 316.4043 A 47.59 47.59 0 0 1 369.87695 316.19922 A 47.59 47.59 0 0 1 369.33789 315.98828 A 47.59 47.59 0 0 1 368.80078 315.76953 A 47.59 47.59 0 0 1 368.26562 315.54492 A 47.59 47.59 0 0 1 367.73242 315.31445 A 47.59 47.59 0 0 1 367.20312 315.07617 A 47.59 47.59 0 0 1 366.67773 314.83203 A 47.59 47.59 0 0 1 366.1543 314.58203 A 47.59 47.59 0 0 1 365.63477 314.32422 A 47.59 47.59 0 0 1 365.11719 314.0625 A 47.59 47.59 0 0 1 364.60352 313.79297 A 47.59 47.59 0 0 1 364.09375 313.51758 A 47.59 47.59 0 0 1 363.58594 313.23438 A 47.59 47.59 0 0 1 363.08203 312.94727 A 47.59 47.59 0 0 1 362.58203 312.65234 A 47.59 47.59 0 0 1 362.08594 312.35352 A 47.59 47.59 0 0 1 361.59375 312.04688 A 47.59 47.59 0 0 1 361.10547 311.73438 A 47.59 47.59 0 0 1 360.61914 311.41602 A 47.59 47.59 0 0 1 360.13867 311.0918 A 47.59 47.59 0 0 1 359.66016 310.76172 A 47.59 47.59 0 0 1 359.1875 310.42578 A 47.59 47.59 0 0 1 358.71875 310.08594 A 47.59 47.59 0 0 1 358.25391 309.73828 A 47.59 47.59 0 0 1 357.79297 309.38477 A 47.59 47.59 0 0 1 357.33789 309.02734 A 47.59 47.59 0 0 1 356.88477 308.66406 A 47.59 47.59 0 0 1 356.4375 308.29297 A 47.59 47.59 0 0 1 355.99609 307.91992 A 47.59 47.59 0 0 1 355.55664 307.53906 A 47.59 47.59 0 0 1 355.12305 307.1543 A 47.59 47.59 0 0 1 354.69531 306.76367 A 47.59 47.59 0 0 1 354.27148 306.36719 A 47.59 47.59 0 0 1 353.85156 305.9668 A 47.59 47.59 0 0 1 353.4375 305.56055 A 47.59 47.59 0 0 1 353.0293 305.14844 A 47.59 47.59 0 0 1 352.625 304.73242 A 47.59 47.59 0 0 1 352.22461 304.31055 A 47.59 47.59 0 0 1 351.83203 303.88477 A 47.59 47.59 0 0 1 351.44336 303.45508 A 47.59 47.59 0 0 1 351.05859 303.01953 A 47.59 47.59 0 0 1 350.68164 302.58008 A 47.59 47.59 0 0 1 350.30859 302.13477 A 47.59 47.59 0 0 1 349.94141 301.68555 A 47.59 47.59 0 0 1 349.58008 301.23242 A 47.59 47.59 0 0 1 349.22266 300.77539 A 47.59 47.59 0 0 1 348.87305 300.3125 A 47.59 47.59 0 0 1 348.52734 299.8457 A 47.59 47.59 0 0 1 348.1875 299.375 A 47.59 47.59 0 0 1 347.85547 298.90039 A 47.59 47.59 0 0 1 347.52734 298.42188 A 47.59 47.59 0 0 1 347.20508 297.93945 A 47.59 47.59 0 0 1 346.88867 297.45312 A 47.59 47.59 0 0 1 346.58008 296.96289 A 47.59 47.59 0 0 1 346.27539 296.46875 A 47.59 47.59 0 0 1 345.97852 295.9707 A 47.59 47.59 0 0 1 345.68555 295.4707 A 47.59 47.59 0 0 1 345.40039 294.96484 A 47.59 47.59 0 0 1 345.12109 294.45703 A 47.59 47.59 0 0 1 344.84766 293.94531 A 47.59 47.59 0 0 1 344.58008 293.42969 A 47.59 47.59 0 0 1 344.32031 292.91211 A 47.59 47.59 0 0 1 344.06445 292.39062 A 47.59 47.59 0 0 1 343.81641 291.86523 A 47.59 47.59 0 0 1 343.57617 291.33789 A 47.59 47.59 0 0 1 343.33984 290.80859 A 47.59 47.59 0 0 1 343.11133 290.27539 A 47.59 47.59 0 0 1 342.88867 289.74023 A 47.59 47.59 0 0 1 342.67383 289.20117 A 47.59 47.59 0 0 1 342.46484 288.66016 A 47.59 47.59 0 0 1 342.26172 288.11523 A 47.59 47.59 0 0 1 342.06641 287.57031 A 47.59 47.59 0 0 1 341.87695 287.02148 A 47.59 47.59 0 0 1 341.69531 286.4707 A 47.59 47.59 0 0 1 341.51953 285.91797 A 47.59 47.59 0 0 1 341.34961 285.36328 A 47.59 47.59 0 0 1 341.1875 284.80664 A 47.59 47.59 0 0 1 341.0332 284.24805 A 47.59 47.59 0 0 1 340.88477 283.6875 A 47.59 47.59 0 0 1 340.74219 283.125 A 47.59 47.59 0 0 1 340.60742 282.56055 A 47.59 47.59 0 0 1 340.48047 281.99414 A 47.59 47.59 0 0 1 340.35938 281.42578 A 47.59 47.59 0 0 1 340.24414 280.85742 A 47.59 47.59 0 0 1 340.13672 280.28711 A 47.59 47.59 0 0 1 340.03711 279.7168 A 47.59 47.59 0 0 1 339.94336 279.14453 A 47.59 47.59 0 0 1 339.85742 278.57031 A 47.59 47.59 0 0 1 339.7793 277.99609 A 47.59 47.59 0 0 1 339.70703 277.41992 A 47.59 47.59 0 0 1 339.64062 276.84375 A 47.59 47.59 0 0 1 339.58203 276.26562 A 47.59 47.59 0 0 1 339.53125 275.68945 A 47.59 47.59 0 0 1 339.48828 275.10938 A 47.59 47.59 0 0 1 339.45117 274.53125 A 47.59 47.59 0 0 1 339.41992 273.95117 A 47.59 47.59 0 0 1 339.39844 273.37305 A 47.59 47.59 0 0 1 339.38281 272.79297 A 47.59 47.59 0 0 1 339.37305 272.21289 A 47.59 47.59 0 0 1 339.37109 271.78125 L 339.37109 271.2207 A 15.86 15.86 0 0 1 339.375 270.88672 A 15.86 15.86 0 0 1 339.38477 270.55078 A 15.86 15.86 0 0 1 339.4043 270.2168 A 15.86 15.86 0 0 1 339.42773 269.88281 A 15.86 15.86 0 0 1 339.46094 269.54883 A 15.86 15.86 0 0 1 339.5 269.2168 A 15.86 15.86 0 0 1 339.54492 268.88477 A 15.86 15.86 0 0 1 339.59766 268.55469 A 15.86 15.86 0 0 1 339.6582 268.22461 A 15.86 15.86 0 0 1 339.72461 267.89648 A 15.86 15.86 0 0 1 339.79883 267.57031 A 15.86 15.86 0 0 1 339.88086 267.24609 A 15.86 15.86 0 0 1 339.9668 266.92188 A 15.86 15.86 0 0 1 340.0625 266.60156 A 15.86 15.86 0 0 1 340.16211 266.28125 A 15.86 15.86 0 0 1 340.27148 265.96484 A 15.86 15.86 0 0 1 340.38477 265.65039 A 15.86 15.86 0 0 1 340.50586 265.33789 A 15.86 15.86 0 0 1 340.63477 265.02734 A 15.86 15.86 0 0 1 340.76758 264.7207 A 15.86 15.86 0 0 1 340.9082 264.41797 A 15.86 15.86 0 0 1 341.05664 264.11719 A 15.86 15.86 0 0 1 341.20898 263.81836 A 15.86 15.86 0 0 1 341.36914 263.52344 A 15.86 15.86 0 0 1 341.53516 263.23242 A 15.86 15.86 0 0 1 341.70703 262.94531 A 15.86 15.86 0 0 1 341.88477 262.66211 A 15.86 15.86 0 0 1 342.06836 262.38281 A 15.86 15.86 0 0 1 342.25781 262.10742 A 15.86 15.86 0 0 1 342.45312 261.83398 A 15.86 15.86 0 0 1 342.6543 261.56641 A 15.86 15.86 0 0 1 342.86133 261.30273 A 15.86 15.86 0 0 1 343.07422 261.04492 A 15.86 15.86 0 0 1 343.29297 260.79102 A 15.86 15.86 0 0 1 343.51562 260.54102 A 15.86 15.86 0 0 1 343.74414 260.29492 A 15.86 15.86 0 0 1 343.97656 260.05469 A 15.86 15.86 0 0 1 344.21484 259.82031 A 15.86 15.86 0 0 1 344.45898 259.58984 A 15.86 15.86 0 0 1 344.70703 259.36523 A 15.86 15.86 0 0 1 344.95898 259.14648 A 15.86 15.86 0 0 1 345.2168 258.93164 A 15.86 15.86 0 0 1 345.47852 258.72266 A 15.86 15.86 0 0 1 345.74609 258.51953 A 15.86 15.86 0 0 1 346.01562 258.32227 A 15.86 15.86 0 0 1 346.29102 258.13086 A 15.86 15.86 0 0 1 346.56836 257.94531 A 15.86 15.86 0 0 1 346.85156 257.76562 A 15.86 15.86 0 0 1 347.13672 257.5918 A 15.86 15.86 0 0 1 347.42773 257.42383 A 15.86 15.86 0 0 1 347.7207 257.26172 A 15.86 15.86 0 0 1 348.01758 257.10547 A 15.86 15.86 0 0 1 348.31641 256.95703 A 15.86 15.86 0 0 1 348.61914 256.81445 A 15.86 15.86 0 0 1 348.92578 256.67773 A 15.86 15.86 0 0 1 349.23438 256.54883 A 15.86 15.86 0 0 1 349.54688 256.42383 A 15.86 15.86 0 0 1 349.85938 256.30859 A 15.86 15.86 0 0 1 350.17578 256.19727 A 15.86 15.86 0 0 1 350.49414 256.09375 A 15.86 15.86 0 0 1 350.81445 255.99805 A 15.86 15.86 0 0 1 351.13867 255.9082 A 15.86 15.86 0 0 1 351.46289 255.82422 A 15.86 15.86 0 0 1 351.78906 255.74805 A 15.86 15.86 0 0 1 352.11523 255.67969 A 15.86 15.86 0 0 1 352.44531 255.61719 A 15.86 15.86 0 0 1 352.77539 255.5625 A 15.86 15.86 0 0 1 353.10742 255.51367 A 15.86 15.86 0 0 1 353.43945 255.47266 A 15.86 15.86 0 0 1 353.77148 255.4375 A 15.86 15.86 0 0 1 354.10547 255.41016 A 15.86 15.86 0 0 1 354.43945 255.39062 A 15.86 15.86 0 0 1 354.77539 255.37695 A 15.86 15.86 0 0 1 355.10938 255.37109 z "
       transform="translate(-159.70844,-63.371124)" />
    <path
       id="path895"
       style="fill:#ffffff;fill-opacity:1"
       d="M 413.37109,96.226562 V 233.37109 h -48 a 47.56,47.56 0 0 0 -16,2.92969 V 119.18555 a 66.211258,66.211258 0 0 0 -12.98437,25.68164 83.994247,83.994247 0 0 0 -19.01563,-6.02149 v 142.52539 a 16,16 0 0 1 -16,16 h -32 a 16,16 0 0 1 -16,-16 V 152.66992 a 83.994247,83.994247 0 0 0 -32,44.16211 v 84.53906 a 16,16 0 0 1 -16,16 h -32 a 16,16 0 0 1 -16,-16 v -99.67773 a 83.15036,83.15036 0 0 0 -72.712887,82.49219 83.15036,83.15036 0 0 0 55.726567,78.49609 137.93895,137.93895 0 0 0 -3.15039,29.3125 137.93895,137.93895 0 0 0 34.49609,91.25 128,128 0 0 1 -14.35938,-58.87305 v -77.94921 a 47.26,47.26 0 0 0 16,2.94921 h 32 a 47.65,47.65 0 0 0 32,-12.49023 47.65,47.65 0 0 0 32,12.49023 h 32 a 47.4,47.4 0 0 0 21.86914,-5.51953 64.34,64.34 0 0 0 38.8711,34.44922 c -17.11,14.82 -31.58055,34.48008 -47.31055,58.08008 l -6.31055,9.4707 a 8,8 0 0 0 2.22071,11.08008 l 13.31054,8.87891 a 8,8 0 0 0 11.08008,-2.21875 l 6.3086,-9.47071 c 31.89,-47.84 51.53078,-70.27078 96.05078,-72.55078 a 8.22,8.22 0 0 0 7.88086,-8 v -16.19922 c 0,-4.42 -3.52117,-8 -13.20118,-8 h -35.25 a 47.59,47.59 0 0 1 -47.51953,-47.58984 v -0.56055 a 15.86,15.86 0 0 1 15.73829,-15.84961 15.86,15.86 0 0 1 0.11132,0 h 112.15039 a 64,64 0 0 1 64,64 v 88.22071 a 96,96 0 0 1 -0.16601,5.65234 138.03043,138.03043 0 0 0 19.88476,-71.36914 138.03043,138.03043 0 0 0 -14.91211,-62.4043 86.326195,86.326195 0 0 0 27.90625,-63.55273 86.326195,86.326195 0 0 0 -64.71289,-83.57617 v 96.92968 a 94.76,94.76 0 0 0 -32,-5.90039 h -32 v -112 a 16,16 0 0 1 1.74219,-7.25976 66.211258,66.211258 0 0 0 -33.74219,-17.884768 z"
       transform="translate(-169.70844,-73.371124)" />
  </g>
</svg>
